Cheat Sheet | PortfolioOptimisers.jl
…
res1 = optimise(InverseVolatility(), rd)
res2 = optimise(InverseVolatility(; sq = true), rd)
inv_vol = 1 ./ sqrt.(variance)
inv_vol /= sum(inv_vol)
inv_var = 1 ./ variance
inv_var /= sum(inv_var)
pretty_table(DataFrame([rd.nx res1.w inv_vol res2.w inv_var],
                       ["assets", "Opt Vol", "Inv Vol", "Opt Var", "Inv Var"]);
             formatters = [resfmt])

┌────────┬─────────┬─────────┬─────────┬─────────┐
│ assets │ Opt Vol │ Inv Vol │ Opt Var │ Inv Var │
│    Any │     Any │     Any │     Any │     Any │
├────────┼─────────┼─────────┼─────────┼─────────┤
│   AAPL │ 4.555 % │ 4.555 % │  3.86 % │  3.86 % │
│    AMD │  2.69 % │  2.69 % │ 1.346 % │ 1.346 % │
│    BAC │ 4.088 % │ 4.088 % │ 3.108 % │ 3.108 % │
│    BBY │ 3.955 % │ 3.955 % │ 2.909 % │ 2.909 % │
│    CVX │ 4.059 % │ 4.059 % │ 3.064 % │ 3.064 % │
│     GE │  3.25 % │  3.25 % │ 1.965 % │ 1.965 % │
│     HD │  5.29 % │  5.29 % │ 5.205 % │ 5.205 % │
│    JNJ │ 6.787 % │ 6.787 % │ 8.569 % │ 8.569 % │
│    JPM │ 4.492 % │ 4.492 % │ 3.753 % │ 3.753 % │
│     KO │ 6.689 % │ 6.689 % │ 8.322 % │ 8.322 % │
│    LLY │ 5.282 % │ 5.282 % │ 5.189 % │ 5.189 % │
│    MRK │ 6.621 % │ 6.621 % │ 8.154 % │ 8.154 % │
│   MSFT │  4.96 % │  4.96 % │ 4.576 % │ 4.576 % │
│    PEP │ 6.402 % │ 6.402 % │ 7.625 % │ 7.625 % │
│    PFE │ 6.147 % │ 6.147 % │ 7.029 % │ 7.029 % │
│      ⋮ │       ⋮ │       ⋮ │       ⋮ │       ⋮ │
└────────┴─────────┴─────────┴─────────┴─────────┘
                                    5 rows omitted

3.1.2 Equal weighted ​
This assigns equal weights to all assets.
julia
res = optimise(EqualWeighted(), rd)
pretty_table(DataFrame([rd.nx res.w], ["assets", "Weights"]); formatters = [resfmt])

┌────────┬─────────┐
│ assets │ Weights │
│    Any │     Any │
├────────┼─────────┤
│   AAPL │   5.0 % │
│    AMD │   5.0 % │
│    BAC │   5.0 % │
│    BBY │   5.0 % │
│    CVX │   5.0 % │
│     GE │   5.0 % │
│     HD │   5.0 % │
│    JNJ │   5.0 % │
│    JPM │   5.0 % │
│     KO │   5.0 % │
│    LLY │   5.0 % │
│    MRK │   5.0 % │
│   MSFT │   5.0 % │
│    PEP │   5.0 % │
│    PFE │   5.0 % │
│      ⋮ │       ⋮ │
└────────┴─────────┘
      5 rows omitted

3.1.3 Random weighted ​
This randomly assigns weights according to a Dirichlet distribution. It's possible to provide a custom alpha parameter as a vector or number, random number generator, and seed.
julia
res = optimise(RandomWeighted(; alpha = 1, rng = StableRNG(696), seed = 66420), rd)
pretty_table(DataFrame([rd.nx res.w], ["assets", "Weights"]); formatters = [resfmt])

┌────────┬──────────┐
│ assets │  Weights │
│    Any │      Any │
├────────┼──────────┤
│   AAPL │  2.736 % │
│    AMD │ 10.553 % │
│    BAC │    3.0 % │
│    BBY │   3.64 % │
│    CVX │  7.897 % │
│     GE │  7.176 % │
│     HD │  0.461 % │
│    JNJ │  0.014 % │
│    JPM │  3.476 % │
│     KO │  9.838 % │
│    LLY │   1.41 % │
│    MRK │  1.049 % │
│   MSFT │  9.721 % │
│    PEP │ 17.372 % │
│    PFE │   2.36 % │
│      ⋮ │        ⋮ │
└────────┴──────────┘
       5 rows omitted
…
# Display results
pretty_table(hcat(DataFrame(:assets => rd.nx),
                  DataFrame(reduce(hcat, [res.w for res in ress]),
                            [:MinimumRisk, :MaximumUtility, :MaximumRatio, :MaximumReturn]));
             formatters = [resfmt])
pretty_table(hcat(DataFrame(:Stat => ["Variance", "Return", "Return/Variance"]),
                  DataFrame(vcat(rk', rt', ratio'),
                            [:MinimumRisk, :MaximumUtility, :MaximumRatio, :MaximumReturn]));
             formatters = [resfmt])

┌────────┬─────────────┬────────────────┬──────────────┬───────────────┐
│ assets │ MinimumRisk │ MaximumUtility │ MaximumRatio │ MaximumReturn │
│ String │     Float64 │        Float64 │      Float64 │       Float64 │
├────────┼─────────────┼────────────────┼──────────────┼───────────────┤
│   AAPL │       0.0 % │       32.448 % │     31.784 % │         0.0 % │
│    AMD │       0.0 % │        46.15 % │     37.264 % │       100.0 % │
│    BAC │       0.0 % │          0.0 % │        0.0 % │         0.0 % │
│    BBY │     0.001 % │          0.0 % │        0.0 % │         0.0 % │
│    CVX │       0.0 % │          0.0 % │        0.0 % │         0.0 % │
│     GE │       0.0 % │          0.0 % │        0.0 % │         0.0 % │
│     HD │       0.0 % │          0.0 % │        0.0 % │         0.0 % │
│    JNJ │    13.325 % │          0.0 % │        0.0 % │         0.0 % │
│    JPM │       0.0 % │          0.0 % │        0.0 % │         0.0 % │
│     KO │    20.013 % │          0.0 % │        0.0 % │         0.0 % │
│    LLY │       0.0 % │       21.402 % │     27.397 % │         0.0 % │
│    MRK │    18.135 % │          0.0 % │        0.0 % │         0.0 % │
│   MSFT │       0.0 % │          0.0 % │      0.001 % │         0.0 % │
│    PEP │       0.0 % │          0.0 % │        0.0 % │         0.0 % │
│    PFE │     7.014 % │          0.0 % │        0.0 % │         0.0 % │
│      ⋮ │           ⋮ │              ⋮ │            ⋮ │             ⋮ │
└────────┴─────────────┴────────────────┴──────────────┴───────────────┘
                                                          5 rows omitted
…
pretty_table(hcat(DataFrame(:assets => rd.nx),
                  DataFrame(reduce(hcat, [res.w for res in ress]),
                            [:MinimumRisk, :MaximumUtility, :MaximumRatio, :MaximumReturn]));
             formatters = [resfmt])
pretty_table(hcat(DataFrame(:factors => [rd.nf; "Intercept"]),
                  DataFrame(reduce(hcat, rkcs),
                            ["RC MinRisk", "RC Max Util", "RC Max Ratio", "RC Max Ret"]));
             formatters = [resfmt])

┌────────┬─────────────┬────────────────┬──────────────┬───────────────┐
│ assets │ MinimumRisk │ MaximumUtility │ MaximumRatio │ MaximumReturn │
│ String │     Float64 │        Float64 │      Float64 │       Float64 │
├────────┼─────────────┼────────────────┼──────────────┼───────────────┤
│   AAPL │      1.12 % │        1.382 % │      8.372 % │      11.873 % │
│    AMD │     8.315 % │        12.22 % │     12.164 % │      21.114 % │
│    BAC │     2.779 % │        0.618 % │      4.591 % │       1.162 % │
│    BBY │       4.1 % │        3.574 % │      5.802 % │       5.427 % │
│    CVX │     9.866 % │       10.406 % │        0.0 % │       5.296 % │
│     GE │     4.071 % │          2.3 % │      1.443 % │         0.0 % │
│     HD │    10.868 % │       13.242 % │      3.257 % │      10.359 % │
│    JNJ │     1.199 % │          0.0 % │      5.253 % │       1.335 % │
│    JPM │     4.265 % │        2.667 % │       2.85 % │       1.196 % │
│     KO │     6.997 % │        6.761 % │      3.089 % │         0.0 % │
│    LLY │     2.459 % │        1.789 % │      7.841 % │       2.328 % │
│    MRK │     8.046 % │        9.333 % │      3.038 % │       4.965 % │
│   MSFT │     5.437 % │        7.282 % │       9.24 % │      14.169 % │
│    PEP │     8.586 % │        9.522 % │      4.341 % │       3.955 % │
│    PFE │     1.282 % │          0.0 % │      8.863 % │         0.0 % │
│      ⋮ │           ⋮ │              ⋮ │            ⋮ │             ⋮ │
└────────┴─────────────┴────────────────┴──────────────┴───────────────┘
                                                          5 rows omitted
…
rk_rt_ratio = [expected_risk_ret_ratio(r, ret, res.w, pr) for res in ress]
rk = map(rr -> rr[1], rk_rt_ratio)
rt = map(rr -> rr[2], rk_rt_ratio)
ratio = map(rr -> rr[3], rk_rt_ratio)
# Display results
pretty_table(hcat(DataFrame(:assets => rd.nx),
                  DataFrame(reduce(hcat, [res.w for res in ress]),
                            [:MinimumRisk, :MaximumUtility, :MaximumRatio, :MaximumReturn]));
             formatters = [resfmt])
pretty_table(hcat(DataFrame(:Stat => ["Variance", "Return", "Return/Variance"]),
                  DataFrame(vcat(rk', rt', ratio'),
                            [:MinimumRisk, :MaximumUtility, :MaximumRatio, :MaximumReturn]));
             formatters = [resfmt])

┌────────┬─────────────┬────────────────┬──────────────┬───────────────┐
│ assets │ MinimumRisk │ MaximumUtility │ MaximumRatio │ MaximumReturn │
│ String │     Float64 │        Float64 │      Float64 │       Float64 │
├────────┼─────────────┼────────────────┼──────────────┼───────────────┤
│   AAPL │      2.27 % │        3.728 % │     18.433 % │       0.241 % │
│    AMD │     1.479 % │        3.318 % │     42.803 % │      97.341 % │
│    BAC │      1.28 % │        1.393 % │       0.88 % │       0.125 % │
│    BBY │     2.149 % │         2.45 % │      1.479 % │       0.154 % │
│    CVX │     1.479 % │         1.43 % │      0.671 % │       0.109 % │
│     GE │     1.653 % │        1.546 % │      0.675 % │       0.108 % │
│     HD │     2.472 % │        2.628 % │      1.303 % │       0.141 % │
│    JNJ │     8.507 % │        6.183 % │      1.376 % │       0.123 % │
│    JPM │       1.7 % │        1.905 % │      1.199 % │       0.133 % │
│     KO │    10.764 % │        8.822 % │      1.814 % │       0.128 % │
│    LLY │     4.433 % │        6.467 % │      10.21 % │       0.168 % │
│    MRK │     11.81 % │       11.371 % │      2.535 % │        0.14 % │
│   MSFT │      1.94 % │        2.782 % │      4.483 % │       0.202 % │
│    PEP │     3.743 % │        3.765 % │      1.567 % │       0.131 % │
│    PFE │     6.409 % │         5.19 % │      1.327 % │       0.124 % │
│      ⋮ │           ⋮ │              ⋮ │            ⋮ │             ⋮ │
└────────┴─────────────┴────────────────┴──────────────┴───────────────┘
                                                          5 rows omitted
…
View and compute the results.
julia
r = factory(r, pr)
rkcs = [risk_contribution(r, res.w, pr.X) for res in ress]
rkcs = rkcs ./ sum.(rkcs)
pretty_table(hcat(DataFrame(:assets => rd.nx),
                  DataFrame(reduce(hcat, [[res.w rkc] for (res, rkc) in zip(ress, rkcs)]),
                            ["Eq Risk Weights", "Eq Risk Budget", "Incr Risk Weights",
                             "Incr Risk Budget"])); formatters = [resfmt])

┌────────┬─────────────────┬────────────────┬───────────────────┬───────────────
│ assets │ Eq Risk Weights │ Eq Risk Budget │ Incr Risk Weights │ Incr Risk Bu ⋯
│ String │         Float64 │        Float64 │           Float64 │          Flo ⋯
├────────┼─────────────────┼────────────────┼───────────────────┼───────────────
│   AAPL │         0.429 % │        0.476 % │           0.429 % │          0.4 ⋯
│    AMD │         0.732 % │        0.952 % │           0.732 % │          0.9 ⋯
│    BAC │         1.027 % │        1.429 % │           1.027 % │          1.4 ⋯
│    BBY │         1.675 % │        1.905 % │           1.675 % │          1.9 ⋯
│    CVX │         1.765 % │        2.381 % │           1.765 % │          2.3 ⋯
│     GE │          2.22 % │        2.857 % │            2.22 % │          2.8 ⋯
│     HD │         3.129 % │        3.333 % │           3.129 % │          3.3 ⋯
│    JNJ │         4.603 % │        3.809 % │           4.603 % │          3.8 ⋯
│    JPM │          3.39 % │        4.285 % │            3.39 % │          4.2 ⋯
│     KO │          5.76 % │        4.761 % │            5.76 % │          4.7 ⋯
│    LLY │          5.57 % │        5.238 % │            5.57 % │          5.2 ⋯
│    MRK │         7.054 % │        5.714 % │           7.054 % │          5.7 ⋯
│   MSFT │         5.366 % │        6.191 % │           5.366 % │          6.1 ⋯
│    PEP │         7.225 % │        6.667 % │           7.225 % │          6.6 ⋯
│    PFE │         8.078 % │        7.143 % │           8.078 % │          7.1 ⋯
│      ⋮ │               ⋮ │              ⋮ │                 ⋮ │              ⋱
└────────┴─────────────────┴────────────────┴───────────────────┴───────────────
                                                     1 column and 5 rows omitted
…
                            Asset risk contribution
┌────────┬─────────────────┬────────────────┬───────────────────┬───────────────
│ assets │ Eq Risk Weights │ Eq Risk Budget │ Incr Risk Weights │ Incr Risk Bu ⋯
│ String │         Float64 │        Float64 │           Float64 │          Flo ⋯
├────────┼─────────────────┼────────────────┼───────────────────┼───────────────
│   AAPL │           0.0 % │          0.0 % │             0.0 % │            0 ⋯
│    AMD │         3.644 % │        4.763 % │           3.644 % │          4.7 ⋯
│    BAC │         9.572 % │       12.501 % │           9.572 % │         12.5 ⋯
│    BBY │         3.022 % │        3.271 % │           3.022 % │          3.2 ⋯
│    CVX │         7.751 % │        9.759 % │           7.751 % │          9.7 ⋯
│     GE │         4.587 % │        5.621 % │           4.587 % │          5.6 ⋯
│     HD │         19.13 % │       19.798 % │           19.13 % │         19.7 ⋯
│    JNJ │           0.0 % │          0.0 % │             0.0 % │            0 ⋯
│    JPM │         3.375 % │        4.015 % │           3.375 % │          4.0 ⋯
│     KO │        10.995 % │        7.736 % │          10.995 % │          7.7 ⋯
│    LLY │           0.0 % │          0.0 % │             0.0 % │            0 ⋯
│    MRK │         9.767 % │        6.421 % │           9.767 % │          6.4 ⋯
│   MSFT │         8.773 % │        9.076 % │           8.773 % │          9.0 ⋯
│    PEP │         4.354 % │        3.228 % │           4.354 % │          3.2 ⋯
│      ⋮ │               ⋮ │              ⋮ │                 ⋮ │              ⋱
└────────┴─────────────────┴────────────────┴───────────────────┴───────────────
                                                     1 column and 6 rows omitted
…
View and compute the results.
julia
r = Variance()
r = factory(r, pr)
rkcs = [risk_contribution(r, res.w, pr.X) for res in ress]
rkcs = rkcs ./ sum.(rkcs)
pretty_table(hcat(DataFrame(:assets => rd.nx),
                  DataFrame(reduce(hcat, [[res.w rkc] for (res, rkc) in zip(ress, rkcs)]),
                            ["B Weights", "B Budget", "Reg Weights", "Reg Budget",
                             "RegPen Weights", "RegPen Budget"])); formatters = [resfmt])

┌────────┬───────────┬──────────┬─────────────┬────────────┬────────────────┬───
│ assets │ B Weights │ B Budget │ Reg Weights │ Reg Budget │ RegPen Weights │  ⋯
│ String │   Float64 │  Float64 │     Float64 │    Float64 │        Float64 │  ⋯
├────────┼───────────┼──────────┼─────────────┼────────────┼────────────────┼───
│   AAPL │   2.445 % │   2.92 % │     1.697 % │    2.002 % │        2.969 % │  ⋯
│    AMD │   2.028 % │   2.92 % │     1.445 % │    2.002 % │        2.431 % │  ⋯
│    BAC │   2.088 % │   2.92 % │     1.463 % │    2.002 % │        2.494 % │  ⋯
│    BBY │   2.434 % │   2.92 % │     1.718 % │    2.002 % │        2.926 % │  ⋯
│    CVX │   2.214 % │   2.92 % │     1.558 % │    2.002 % │         2.63 % │  ⋯
│     GE │   2.282 % │   2.92 % │     1.622 % │    2.002 % │        2.683 % │  ⋯
│     HD │   2.583 % │   2.92 % │      1.78 % │    2.002 % │        3.157 % │  ⋯
│    JNJ │   7.688 % │  6.895 % │     9.706 % │    9.151 % │        9.168 % │  ⋯
│    JPM │   2.292 % │   2.92 % │     1.599 % │    2.002 % │         2.74 % │  ⋯
│     KO │  11.404 % │ 10.268 % │    14.491 % │   13.694 % │        9.432 % │  ⋯
│    LLY │    2.99 % │   2.92 % │     1.989 % │    2.002 % │        3.672 % │  ⋯
│    MRK │  12.721 % │  11.39 % │    14.769 % │    13.91 % │        9.839 % │  ⋯
│   MSFT │   2.382 % │   2.92 % │     1.634 % │    2.002 % │        2.918 % │  ⋯
│    PEP │   2.925 % │   2.92 % │     1.928 % │    2.002 % │        3.645 % │  ⋯
│    PFE │   3.209 % │   2.92 % │     3.683 % │    3.485 % │        6.115 % │  ⋯
│      ⋮ │         ⋮ │        ⋮ │           ⋮ │          ⋮ │              ⋮ │  ⋱
└────────┴───────────┴──────────┴─────────────┴────────────┴────────────────┴───
                                                     1 column and 5 rows omitted
…
View and compute the results.
julia
pr = res.pr
r = factory(Variance(), pr)
rk, rt, ratio = expected_risk_ret_ratio(r, ArithmeticReturn(), res.w, pr)
# Display results
pretty_table(DataFrame(:assets => rd.nx, :Weights => res.w); formatters = [resfmt])
pretty_table(DataFrame(:Stat => ["Variance", "Return", "Return/Variance"],
                       :Measure => [rk, rt, ratio]); formatters = [resfmt])

┌────────┬─────────┐
│ assets │ Weights │
│ String │ Float64 │
├────────┼─────────┤
│   AAPL │ 4.612 % │
│    AMD │ 1.378 % │
│    BAC │ 3.001 % │
│    BBY │ 3.707 % │
│    CVX │ 3.186 % │
│     GE │ 2.013 % │
│     HD │ 6.219 % │
│    JNJ │ 9.316 % │
│    JPM │ 3.624 % │
│     KO │ 5.824 % │
│    LLY │ 5.857 % │
│    MRK │ 8.865 % │
│   MSFT │ 3.198 % │
│    PEP │ 8.275 % │
│    PFE │ 4.918 % │
│      ⋮ │       ⋮ │
└────────┴─────────┘
      5 rows omitted
…
rk_rt_ratio = [expected_risk_ret_ratio(r, ArithmeticReturn(), res.w, pr) for res in ress]
rk = map(rr -> rr[1], rk_rt_ratio)
rt = map(rr -> rr[2], rk_rt_ratio)
ratio = map(rr -> rr[3], rk_rt_ratio)
# Display results
pretty_table(hcat(DataFrame(:assets => rd.nx),
                  DataFrame(reduce(hcat, [res.w for res in ress]),
                            ["HRP", "gamma = 0", "MVO", "gamma = 1", "gamma = :max"]));
             formatters = [resfmt])
pretty_table(hcat(DataFrame(:Stat => ["Variance", "Return", "Return/Variance"]),
                  DataFrame(vcat(rk', rt', ratio'),
                            ["HRP", "gamma = 0", "MVO", "gamma = 1", "gamma = :max"]));
             formatters = [resfmt])

┌────────┬─────────┬───────────┬──────────┬───────────┬──────────────┐
│ assets │     HRP │ gamma = 0 │      MVO │ gamma = 1 │ gamma = :max │
│ String │ Float64 │   Float64 │  Float64 │   Float64 │      Float64 │
├────────┼─────────┼───────────┼──────────┼───────────┼──────────────┤
│   AAPL │ 4.612 % │   4.612 % │    0.0 % │   0.258 % │      7.401 % │
│    AMD │ 1.378 % │   1.378 % │    0.0 % │   3.115 % │      0.065 % │
│    BAC │ 3.001 % │   3.001 % │    0.0 % │   0.106 % │      2.364 % │
│    BBY │ 3.707 % │   3.707 % │  0.001 % │     0.0 % │      0.319 % │
│    CVX │ 3.186 % │   3.186 % │    0.0 % │     0.0 % │      0.365 % │
│     GE │ 2.013 % │   2.013 % │    0.0 % │   0.917 % │      0.092 % │
│     HD │ 6.219 % │   6.219 % │    0.0 % │   0.591 % │      9.668 % │
│    JNJ │ 9.316 % │   9.316 % │ 13.325 % │     0.0 % │     14.118 % │
│    JPM │ 3.624 % │   3.624 % │    0.0 % │   0.117 % │      2.943 % │
│     KO │ 5.824 % │   5.824 % │ 20.013 % │     0.0 % │      5.553 % │
│    LLY │ 5.857 % │   5.857 % │    0.0 % │  16.677 % │      2.382 % │
│    MRK │ 8.865 % │   8.865 % │ 18.135 % │     0.0 % │     13.819 % │
│   MSFT │ 3.198 % │   3.198 % │    0.0 % │  42.233 % │      1.493 % │
│    PEP │ 8.275 % │   8.275 % │    0.0 % │     0.0 % │      8.428 % │
│    PFE │ 4.918 % │   4.918 % │  7.014 % │     0.0 % │      4.601 % │
│      ⋮ │       ⋮ │         ⋮ │        ⋮ │         ⋮ │            ⋮ │
└────────┴─────────┴───────────┴──────────┴───────────┴──────────────┘
                                                        5 rows omitted
…
