Example 5: Budget constraints | PortfolioOptimisers.jl
…
Now let's allocate a finite amount of capital, 4206.9, to this portfolio.
julia
da = DiscreteAllocation(; slv = mip_slv)
mip_res1 = optimise(da, res1.w, vec(values(X[end])), 4206.9)
pretty_table(DataFrame(:assets => rd.nx, :shares => mip_res1.shares, :cost => mip_res1.cost,
                       :opt_weights => res1.w, :mip_weights => mip_res1.w);
             formatters = [mipresfmt])
println("long cost + short cost = cost = $(sum(mip_res1.cost))")
println("long cost: $(sum(mip_res1.cost[mip_res1.cost .>= zero(eltype(mip_res1.cost))]))")
println("short cost: $(sum(mip_res1.cost[mip_res1.cost .< zero(eltype(mip_res1.cost))]))")
println("remaining cash: $(mip_res1.cash)")
println("used cash ≈ available cash: $(isapprox(sum(mip_res1.cost) + mip_res1.cash, 4206.9 * sum(res1.w)))")

┌────────┬─────────┬─────────┬─────────────┬─────────────┐
│ assets │  shares │    cost │ opt_weights │ mip_weights │
│ String │ Float64 │ Float64 │     Float64 │     Float64 │
├────────┼─────────┼─────────┼─────────────┼─────────────┤
│   AAPL │     0.0 │     0.0 │       0.0 % │       0.0 % │
│    AMD │     0.0 │     0.0 │       0.0 % │       0.0 % │
│    BAC │     1.0 │  32.301 │       0.0 % │     0.768 % │
│    BBY │     0.0 │     0.0 │       0.0 % │       0.0 % │
│    CVX │     5.0 │  868.64 │    21.386 % │    20.655 % │
│     GE │     0.0 │     0.0 │       0.0 % │       0.0 % │
│     HD │     0.0 │     0.0 │       0.0 % │       0.0 % │
│    JNJ │    13.0 │ 2263.11 │    55.414 % │    53.815 % │
│    JPM │     0.0 │     0.0 │       0.0 % │       0.0 % │
│     KO │     0.0 │     0.0 │       0.0 % │       0.0 % │
│    LLY │     0.0 │     0.0 │       0.0 % │       0.0 % │
│    MRK │     8.0 │ 876.648 │    21.207 % │    20.846 % │
│   MSFT │     0.0 │     0.0 │       0.0 % │       0.0 % │
│    PEP │     0.0 │     0.0 │       0.0 % │       0.0 % │
│    PFE │     0.0 │     0.0 │       0.0 % │       0.0 % │
│      ⋮ │       ⋮ │       ⋮ │           ⋮ │           ⋮ │
└────────┴─────────┴─────────┴─────────────┴─────────────┘
                                            5 rows omitted
…
Let's allocate a finite amount of capital. Since we set the long and short budgets equal to 1, the cost of the long and short positions will be approximately equal to the allocated value of 4206.9, and the sum of the costs will be close to zero. The discrepancies are due to the fact that we are allocating a finite amount of capital.
The discrete allocation procedure automatically adjusts the cash amount depending on the optimal long and short weights, so there is no need to split the cash amount into long and short allocations.
julia
mip_res2 = optimise(da, res2.w, vec(values(X[end])), 4206.9)
pretty_table(DataFrame(:assets => rd.nx, :shares => mip_res2.shares, :cost => mip_res2.cost,
                       :opt_weights => res2.w, :mip_weights => mip_res2.w);
             formatters = [mipresfmt])
println("long cost + short cost = cost = $(sum(mip_res2.cost))")
println("long cost: $(sum(mip_res2.cost[mip_res2.cost .>= zero(eltype(mip_res2.cost))]))")
println("short cost: $(sum(mip_res2.cost[mip_res2.cost .< zero(eltype(mip_res2.cost))]))")
println("remaining cash: $(mip_res2.cash)")
println("used cash ≈ available cash: $(isapprox(sum(abs.(mip_res2.cost)) + mip_res2.cash, 4206.9 * sum(abs.(res2.w))))")

┌────────┬─────────┬──────────┬─────────────┬─────────────┐
│ assets │  shares │     cost │ opt_weights │ mip_weights │
│ String │ Float64 │  Float64 │     Float64 │     Float64 │
├────────┼─────────┼──────────┼─────────────┼─────────────┤
│   AAPL │    -1.0 │ -125.674 │    -2.526 % │    -2.999 % │
│    AMD │    -2.0 │  -125.14 │    -3.226 % │    -2.986 % │
│    BAC │   -21.0 │ -678.321 │   -16.732 % │   -16.188 % │
│    BBY │     1.0 │   78.279 │     0.837 % │     1.857 % │
│    CVX │     0.0 │      0.0 │     0.001 % │       0.0 % │
│     GE │     6.0 │  383.298 │     8.532 % │     9.093 % │
│     HD │     0.0 │     -0.0 │    -3.235 % │      -0.0 % │
│    JNJ │    -4.0 │  -696.34 │   -17.975 % │   -16.618 % │
│    JPM │     3.0 │  388.725 │     8.859 % │     9.222 % │
│     KO │    23.0 │  1440.01 │    33.949 % │    34.163 % │
│    LLY │     0.0 │      0.0 │     3.536 % │       0.0 % │
│    MRK │    16.0 │   1753.3 │    39.716 % │    41.595 % │
│   MSFT │    -1.0 │ -233.434 │    -7.632 % │    -5.571 % │
│    PEP │    -6.0 │ -1075.67 │    -26.22 % │   -25.671 % │
│    PFE │   -12.0 │   -591.0 │   -13.952 % │   -14.104 % │
│      ⋮ │       ⋮ │        ⋮ │           ⋮ │           ⋮ │
└────────┴─────────┴──────────┴─────────────┴─────────────┘
                                             5 rows omitted
…
We can confirm that the finite allocation behaves as expected.
julia
mip_res3 = optimise(da, res3.w, vec(values(X[end])), 4206.9)
pretty_table(DataFrame(:assets => rd.nx, :shares => mip_res3.shares, :cost => mip_res3.cost,
                       :opt_weights => res3.w, :mip_weights => mip_res3.w);
             formatters = [mipresfmt])
println("long cost + short cost = cost = $(sum(mip_res3.cost))")
println("long cost: $(sum(mip_res3.cost[mip_res3.cost .>= zero(eltype(mip_res3.cost))]))")
println("short cost: $(sum(mip_res3.cost[mip_res3.cost .< zero(eltype(mip_res3.cost))]))")
println("remaining cash: $(mip_res3.cash)")
println("used cash ≈ available cash: $(isapprox(sum(mip_res3.cost) - mip_res3.cash, 4206.9 * sum(res3.w)))")

┌────────┬─────────┬──────────┬─────────────┬─────────────┐
│ assets │  shares │     cost │ opt_weights │ mip_weights │
│ String │ Float64 │  Float64 │     Float64 │     Float64 │
├────────┼─────────┼──────────┼─────────────┼─────────────┤
│   AAPL │     0.0 │     -0.0 │      -0.0 % │      -0.0 % │
│    AMD │     0.0 │     -0.0 │      -0.0 % │      -0.0 % │
│    BAC │    -1.0 │  -32.301 │      -0.0 % │    -0.768 % │
│    BBY │     0.0 │     -0.0 │      -0.0 % │      -0.0 % │
│    CVX │     0.0 │     -0.0 │      -0.0 % │      -0.0 % │
│     GE │    -3.0 │ -191.649 │    -4.403 % │    -4.558 % │
│     HD │    -1.0 │  -311.22 │    -5.068 % │    -7.401 % │
│    JNJ │    -2.0 │  -348.17 │     -9.44 % │     -8.28 % │
│    JPM │     0.0 │     -0.0 │      -0.0 % │      -0.0 % │
│     KO │     0.0 │     -0.0 │      -0.0 % │      -0.0 % │
│    LLY │     0.0 │     -0.0 │    -4.644 % │      -0.0 % │
│    MRK │    -1.0 │ -109.581 │    -3.636 % │    -2.606 % │
│   MSFT │     0.0 │     -0.0 │      -0.0 % │      -0.0 % │
│    PEP │    -8.0 │ -1434.22 │   -31.891 % │   -34.108 % │
│    PFE │    -7.0 │  -344.75 │    -7.612 % │    -8.199 % │
│      ⋮ │       ⋮ │        ⋮ │           ⋮ │           ⋮ │
└────────┴─────────┴──────────┴─────────────┴─────────────┘
                                             5 rows omitted
…
Again, the finite allocation respects the budget constraints.
julia
mip_res4 = optimise(da, res4.w, vec(values(X[end])), 4206.9)
pretty_table(DataFrame(:assets => rd.nx, :shares => mip_res4.shares, :cost => mip_res4.cost,
                       :opt_weights => res4.w, :mip_weights => mip_res4.w);
             formatters = [mipresfmt])
println("long cost + short cost = cost = $(sum(mip_res4.cost))")
println("long cost: $(sum(mip_res4.cost[mip_res4.cost .>= zero(eltype(mip_res4.cost))]))")
println("short cost: $(sum(mip_res4.cost[mip_res4.cost .< zero(eltype(mip_res4.cost))]))")
println("remaining cash: $(mip_res4.cash)")
println("used cash ≈ available cash: $(isapprox(sum(mip_res4.cost) + mip_res4.cash, 4206.9 * sum(res4.w)))")

┌────────┬─────────┬─────────┬─────────────┬─────────────┐
│ assets │  shares │    cost │ opt_weights │ mip_weights │
│ String │ Float64 │ Float64 │     Float64 │     Float64 │
├────────┼─────────┼─────────┼─────────────┼─────────────┤
│   AAPL │     0.0 │     0.0 │       0.0 % │       0.0 % │
│    AMD │     0.0 │     0.0 │       0.0 % │       0.0 % │
│    BAC │     0.0 │     0.0 │       0.0 % │       0.0 % │
│    BBY │     0.0 │     0.0 │       0.0 % │       0.0 % │
│    CVX │     5.0 │  868.64 │    27.802 % │    20.661 % │
│     GE │     0.0 │     0.0 │       0.0 % │       0.0 % │
│     HD │     0.0 │     0.0 │       0.0 % │       0.0 % │
│    JNJ │    22.0 │ 3829.87 │    72.034 % │    91.094 % │
│    JPM │     0.0 │     0.0 │       0.0 % │       0.0 % │
│     KO │     0.0 │     0.0 │       0.0 % │       0.0 % │
│    LLY │     0.0 │     0.0 │       0.0 % │       0.0 % │
│    MRK │     7.0 │ 767.067 │    27.572 % │    18.245 % │
│   MSFT │     0.0 │     0.0 │       0.0 % │       0.0 % │
│    PEP │     0.0 │     0.0 │       0.0 % │       0.0 % │
│    PFE │     0.0 │     0.0 │       0.0 % │       0.0 % │
│      ⋮ │       ⋮ │       ⋮ │           ⋮ │           ⋮ │
└────────┴─────────┴─────────┴─────────────┴─────────────┘
                                            5 rows omitted
…
For this portfolio, the sum of the long and short cost will be approximately equal to half the allocated value of 4206.9. Any discrepancies are due to the fact we are allocating a finite amount.
julia
mip_res5 = optimise(da, res5.w, vec(values(X[end])), 4506.9)
pretty_table(DataFrame(:assets => rd.nx, :shares => mip_res5.shares, :cost => mip_res5.cost,
                       :opt_weights => res5.w, :mip_weights => mip_res5.w);
             formatters = [mipresfmt])
println("long cost + short cost = cost = $(sum(mip_res5.cost))")
println("long cost: $(sum(mip_res5.cost[mip_res5.cost .>= zero(eltype(mip_res5.cost))]))")
println("short cost: $(sum(mip_res5.cost[mip_res5.cost .< zero(eltype(mip_res5.cost))]))")
println("remaining cash: $(mip_res5.cash)")
println("used cash ≈ available cash: $(isapprox(sum(abs.(mip_res5.cost)) + mip_res5.cash, 4506.9 * sum(abs.(res5.w))))")

┌────────┬─────────┬──────────┬─────────────┬─────────────┐
│ assets │  shares │     cost │ opt_weights │ mip_weights │
│ String │ Float64 │  Float64 │     Float64 │     Float64 │
├────────┼─────────┼──────────┼─────────────┼─────────────┤
│   AAPL │    -3.0 │ -377.022 │    -5.861 % │    -8.419 % │
│    AMD │     2.0 │   125.14 │     2.652 % │     2.771 % │
│    BAC │   -15.0 │ -484.515 │   -16.678 % │   -10.819 % │
│    BBY │     0.0 │      0.0 │     1.085 % │       0.0 % │
│    CVX │     2.0 │  347.456 │     9.537 % │     7.695 % │
│     GE │    -3.0 │ -191.649 │    -2.542 % │     -4.28 % │
│     HD │    -1.0 │  -311.22 │    -4.712 % │     -6.95 % │
│    JNJ │    12.0 │  2089.02 │    39.908 % │    46.262 % │
│    JPM │     7.0 │  907.025 │    19.622 % │    20.086 % │
│     KO │     8.0 │  500.872 │    10.332 % │    11.092 % │
│    LLY │    -1.0 │ -363.098 │    -4.609 % │    -8.108 % │
│    MRK │     4.0 │  438.324 │    10.104 % │     9.707 % │
│   MSFT │     1.0 │  233.434 │      5.78 % │     5.169 % │
│    PEP │    -4.0 │ -717.112 │    -20.16 % │   -16.013 % │
│    PFE │    -6.0 │   -295.5 │    -9.128 % │    -6.599 % │
│      ⋮ │       ⋮ │        ⋮ │           ⋮ │           ⋮ │
└────────┴─────────┴──────────┴─────────────┴─────────────┘
                                             5 rows omitted
…
