Data preprocessing and imputation | PortfolioOptimisers.jl
…
vals = Matrix{Union{Float64, Missing}}(values(X))
vals[1:160, 3] .= missing                 # asset 3: mostly missing (late lister → drop)
vals[100:120, 2] .= missing               # asset 2: a ~3-week trading halt (fillable)
using StableRNGs
rng = StableRNG(42)
for _ in 1:60                              # scattered single-day gaps elsewhere
    vals[rand(rng, 1:T), rand(rng, 4:N)] = missing
end
Xmiss = TimeArray(ts, vals, Symbol.(nx))

253×20 TimeSeries.TimeArray{Union{Missing, Float64}, 2, Date, Matrix{Union{Missing, Float64}}} 2021-12-28 to 2022-12-28
┌────────────┬─────────┬────────┬─────────┬─────────┬─────────┬────────┬────────
│            │ AAPL    │ AMD    │ BAC     │ BBY     │ CVX     │ GE     │ HD    ⋯
├────────────┼─────────┼────────┼─────────┼─────────┼─────────┼────────┼────────
│ 2021-12-28 │ 177.738 │ 153.15 │ missing │  92.981 │ 112.335 │ 73.953 │  390. ⋯
│ 2021-12-29 │ 177.827 │ 148.26 │ missing │  94.233 │ 111.757 │ 73.557 │ 395.0 ⋯
│ 2021-12-30 │ 176.657 │ 145.15 │ missing │  94.877 │ 111.264 │ 73.487 │ 394.1 ⋯
│ 2021-12-31 │ 176.033 │  143.9 │ missing │  94.924 │ 111.188 │ 73.309 │ 399.0 ⋯
│ 2022-01-03 │ 180.434 │ 150.24 │ missing │   95.41 │ 112.998 │ 74.682 │ 392.9 ⋯
│ 2022-01-04 │ 178.144 │ 144.42 │ missing │  98.231 │ 115.054 │ 77.111 │ 396.9 ⋯
│ 2022-01-05 │ 173.406 │ 136.15 │ missing │  96.232 │ 115.803 │ 77.111 │ 391.5 ⋯
│ 2022-01-06 │ 170.511 │ 136.23 │ missing │   96.12 │ 116.788 │ 77.561 │ 390.1 ⋯
│     ⋮      │    ⋮    │   ⋮    │    ⋮    │    ⋮    │    ⋮    │   ⋮    │    ⋮  ⋱
│ 2022-12-19 │ 131.986 │  64.59 │  31.601 │ missing │ 166.758 │ 60.835 │ 312.7 ⋯
│ 2022-12-20 │ 131.916 │  65.05 │  31.729 │  77.371 │ 169.497 │ 62.604 │ 310.3 ⋯
│ 2022-12-21 │ 135.057 │  67.68 │  32.212 │  78.729 │  171.49 │  64.67 │ 314.7 ⋯
│ 2022-12-22 │ 131.846 │  63.86 │  31.927 │  78.563 │ 168.918 │ 63.727 │ 311.6 ⋯
│ 2022-12-23 │ 131.477 │  64.52 │  32.005 │  79.432 │  174.14 │ 63.742 │ 314.1 ⋯
│ 2022-12-27 │ 129.652 │  63.27 │  32.065 │   79.93 │ 176.329 │ 64.561 │ 314.9 ⋯
│ 2022-12-28 │ 125.674 │  62.57 │  32.301 │  78.279 │ 173.728 │ 63.883 │  311. ⋯
└────────────┴─────────┴────────┴─────────┴─────────┴─────────┴────────┴────────
                                                 14 columns and 238 rows omitted
…
