Efficient frontier | PortfolioOptimisers.jl
…
retcode and sol are now vectors — one entry per frontier point. We had no warnings about failed optimisations, but let's confirm every point solved.
julia
all(x -> isa(x, OptimisationSuccess), resA.retcode)

true

The weights evolve smoothly from the low-risk end (diversified) toward the high-return end (concentrated) as we walk up the frontier.
julia
pretty_table(DataFrame([rd.nx hcat(resA.w...)], Symbol.([:assets; 1:30]));
             formatters = [resfmt])

┌────────┬──────────┬──────────┬──────────┬──────────┬──────────┬──────────┬────
│ assets │        1 │        2 │        3 │        4 │        5 │        6 │   ⋯
│    Any │      Any │      Any │      Any │      Any │      Any │      Any │   ⋯
├────────┼──────────┼──────────┼──────────┼──────────┼──────────┼──────────┼────
│   AAPL │    0.0 % │    0.0 % │    0.0 % │    0.0 % │    0.0 % │    0.0 % │   ⋯
│    AMD │    0.0 % │    0.0 % │    0.0 % │    0.0 % │    0.0 % │    0.0 % │   ⋯
│    BAC │    0.0 % │    0.0 % │    0.0 % │    0.0 % │    0.0 % │    0.0 % │   ⋯
│    BBY │    0.0 % │    0.0 % │    0.0 % │    0.0 % │    0.0 % │    0.0 % │   ⋯
│    CVX │ 13.167 % │ 12.757 % │  9.552 % │  3.037 % │  1.821 % │  0.159 % │   ⋯
│     GE │    0.0 % │    0.0 % │    0.0 % │    0.0 % │    0.0 % │    0.0 % │   ⋯
│     HD │    0.0 % │    0.0 % │    0.0 % │    0.0 % │    0.0 % │    0.0 % │   ⋯
│    JNJ │ 45.342 % │ 40.238 % │ 37.261 % │ 32.596 % │ 29.384 % │ 26.772 % │ 2 ⋯
│    JPM │    0.0 % │    0.0 % │    0.0 % │    0.0 % │    0.0 % │    0.0 % │   ⋯
│     KO │ 13.285 % │ 14.244 % │ 14.767 % │ 18.327 % │ 17.772 % │ 17.332 % │ 1 ⋯
│    LLY │    0.0 % │    0.0 % │    0.0 % │    0.0 % │    0.0 % │    0.0 % │   ⋯
│    MRK │ 20.556 % │ 25.205 % │ 27.696 % │ 29.897 % │ 33.915 % │ 36.555 % │ 3 ⋯
│   MSFT │    0.0 % │    0.0 % │    0.0 % │    0.0 % │    0.0 % │    0.0 % │   ⋯
│    PEP │    0.0 % │    0.0 % │    0.0 % │    0.0 % │    0.0 % │    0.0 % │   ⋯
│    PFE │    0.0 % │    0.0 % │    0.0 % │    0.0 % │    0.0 % │    0.0 % │   ⋯
│      ⋮ │        ⋮ │        ⋮ │        ⋮ │        ⋮ │        ⋮ │        ⋮ │   ⋱
└────────┴──────────┴──────────┴──────────┴──────────┴──────────┴──────────┴────
                                                   24 columns and 5 rows omitted
…
