Specialist risk measures: BrownianDistanceVariance and VarianceSkewKurtosis | PortfolioOptimisers.jl
…
2.2 Alternative formulations ​
A second formulation switch controls the rank constraint used for the distance matrix: QuadRiskExpr (default) or RSOCRiskExpr. The latter uses a rotated second-order cone and can be faster for very dense problems.
julia
res_bdvar_rsoc = optimise(MeanRisk(; r = BrownianDistanceVariance(; alg1 = RSOCRiskExpr()),
                                   opt = opt))

pretty_table(DataFrame(; :assets => rd.nx, :BDVar_default => res_bdvar.w,
                       :BDVar_ineq => res_bdvar_ineq.w, :BDVar_rsoc => res_bdvar_rsoc.w);
             formatters = [resfmt])

┌────────┬───────────────┬────────────┬────────────┐
│ assets │ BDVar_default │ BDVar_ineq │ BDVar_rsoc │
│ String │       Float64 │    Float64 │    Float64 │
├────────┼───────────────┼────────────┼────────────┤
│   AAPL │         0.0 % │      0.0 % │     -0.0 % │
│    AMD │         0.0 % │      0.0 % │     -0.0 % │
│    BAC │         0.0 % │      0.0 % │     -0.0 % │
│    BBY │         0.0 % │      0.0 % │     -0.0 % │
│    CVX │       6.687 % │    6.687 % │    6.687 % │
│     GE │         0.0 % │      0.0 % │     -0.0 % │
│     HD │         0.0 % │      0.0 % │     -0.0 % │
│    JNJ │      43.573 % │   43.573 % │   43.586 % │
│    JPM │         0.0 % │      0.0 % │     -0.0 % │
│     KO │         0.0 % │      0.0 % │     -0.0 % │
│    LLY │         0.0 % │      0.0 % │     -0.0 % │
│    MRK │       4.505 % │    4.506 % │    4.498 % │
│   MSFT │         0.0 % │      0.0 % │     -0.0 % │
│    PEP │       6.377 % │    6.377 % │    6.379 % │
│    PFE │         0.0 % │      0.0 % │     -0.0 % │
│      ⋮ │             ⋮ │          ⋮ │          ⋮ │
└────────┴───────────────┴────────────┴────────────┘
                                      5 rows omitted
…
Compare the two allocations. Heavier skewness/kurtosis penalties push the optimiser further away from fat-tailed or left-skewed names.
julia
pretty_table(DataFrame(; :assets => rd.nx, :VarianceSkewKurtosis => res_vsk.w,
                       :VSK_heavy_tail => res_vsk_heavy.w); formatters = [resfmt])

┌────────┬──────────────────────┬────────────────┐
│ assets │ VarianceSkewKurtosis │ VSK_heavy_tail │
│ String │              Float64 │        Float64 │
├────────┼──────────────────────┼────────────────┤
│   AAPL │              0.004 % │        0.011 % │
│    AMD │              0.005 % │          0.0 % │
│    BAC │              4.666 % │        4.692 % │
│    BBY │              0.765 % │        0.794 % │
│    CVX │              5.839 % │        5.781 % │
│     GE │              3.994 % │        3.984 % │
│     HD │              1.795 % │        1.857 % │
│    JNJ │              8.999 % │        8.984 % │
│    JPM │              5.485 % │        5.509 % │
│     KO │              6.648 % │        6.649 % │
│    LLY │              7.755 % │        7.764 % │
│    MRK │              9.094 % │        9.064 % │
│   MSFT │              0.755 % │        0.831 % │
│    PEP │              8.311 % │        8.288 % │
│    PFE │              6.668 % │        6.661 % │
│      ⋮ │                    ⋮ │              ⋮ │
└────────┴──────────────────────┴────────────────┘
                                    5 rows omitted
…
