Black–Litterman | PortfolioOptimisers.jl
…
2. The equilibrium prior ​
Black–Litterman does not start from the sample mean. Its baseline is the EquilibriumExpectedReturns vector — the returns implied by the market via reverse optimisation (boldsymbolpi=lambdamathbfSigmaboldsymbolwmkt). This matters because the raw sample mean over a single year is noisy and often negative, whereas the equilibrium prior is a smoother, economically-motivated anchor that the views then nudge.
We build both and compare them.
julia
pr_sample = prior(EmpiricalPrior(), rd)
pr_eq = prior(EmpiricalPrior(; me = EquilibriumExpectedReturns()), rd)

pretty_table(DataFrame(["Assets" => rd.nx, "Sample mean" => pr_sample.mu,
                        "Equilibrium" => pr_eq.mu]); formatters = [mmtfmt],
             title = "Sample mean vs equilibrium prior")

   Sample mean vs equilibrium prior
┌────────┬─────────────┬─────────────┐
│ Assets │ Sample mean │ Equilibrium │
│ String │     Float64 │     Float64 │
├────────┼─────────────┼─────────────┤
│   AAPL │   -0.1126 % │    0.0231 % │
│    AMD │   -0.2809 % │    0.0362 % │
│    BAC │   -0.0934 % │    0.0191 % │
│    BBY │   -0.0279 % │    0.0239 % │
│    CVX │    0.1945 % │    0.0144 % │
│     GE │   -0.0339 % │    0.0194 % │
│     HD │   -0.0707 % │    0.0178 % │
│    JNJ │    0.0307 % │    0.0075 % │
│    JPM │   -0.0417 % │    0.0176 % │
│     KO │    0.0497 % │    0.0108 % │
│    LLY │    0.1305 % │    0.0122 % │
│    MRK │    0.1669 % │    0.0075 % │
│   MSFT │   -0.1206 % │     0.022 % │
│    PEP │     0.039 % │    0.0106 % │
│      ⋮ │           ⋮ │           ⋮ │
└────────┴─────────────┴─────────────┘
                        6 rows omitted
…
pretty_table(DataFrame(["Assets" => rd.nx, "Equilibrium" => pr_eq.mu,
                        "Absolute" => pr_abs.mu, "Relative" => pr_rel.mu,
                        "Group" => pr_grp.mu]); formatters = [mmtfmt],
             title = "Posterior expected returns by view type")

         Posterior expected returns by view type
┌────────┬─────────────┬──────────┬───────────┬──────────┐
│ Assets │ Equilibrium │ Absolute │  Relative │    Group │
│ String │     Float64 │  Float64 │   Float64 │  Float64 │
├────────┼─────────────┼──────────┼───────────┼──────────┤
│   AAPL │    0.0231 % │ 0.0516 % │  0.0135 % │ 0.0363 % │
│    AMD │    0.0362 % │ 0.0719 % │ -0.0013 % │ 0.0594 % │
│    BAC │    0.0191 % │ 0.0338 % │   0.011 % │ 0.0272 % │
│    BBY │    0.0239 % │ 0.0434 % │  0.0133 % │ 0.0345 % │
│    CVX │    0.0144 % │ 0.0222 % │  0.0089 % │ 0.0187 % │
│     GE │    0.0194 % │ 0.0348 % │  0.0082 % │ 0.0279 % │
│     HD │    0.0178 % │ 0.0327 % │  0.0124 % │ 0.0257 % │
│    JNJ │    0.0075 % │ 0.0126 % │  0.0074 % │ 0.0096 % │
│    JPM │    0.0176 % │ 0.0307 % │  0.0109 % │ 0.0247 % │
│     KO │    0.0108 % │  0.019 % │  0.0089 % │ 0.0145 % │
│    LLY │    0.0122 % │ 0.0202 % │  0.0106 % │ 0.0162 % │
│    MRK │    0.0075 % │  0.012 % │  0.0084 % │ 0.0092 % │
│   MSFT │     0.022 % │ 0.0451 % │  0.0166 % │ 0.0349 % │
│    PEP │    0.0106 % │ 0.0192 % │  0.0093 % │ 0.0144 % │
│      ⋮ │           ⋮ │        ⋮ │         ⋮ │        ⋮ │
└────────┴─────────────┴──────────┴───────────┴──────────┘
                                            6 rows omitted
…
res_eq = optimise(MeanRisk(; obj = MaximumRatio(; rf = rf),
                           opt = JuMPOptimiser(; pe = pr_eq, slv = slv)))
res_bl = optimise(MeanRisk(; obj = MaximumRatio(; rf = rf),
                           opt = JuMPOptimiser(; pe = pr_abs, slv = slv)))

pretty_table(DataFrame(["Assets" => rd.nx, "Equilibrium" => res_eq.w,
                        "Black-Litterman" => res_bl.w]); formatters = [resfmt],
             title = "Maximum-ratio weights: equilibrium vs Black–Litterman")

Maximum-ratio weights: equilibrium vs Black–Litterman
┌────────┬─────────────┬─────────────────┐
│ Assets │ Equilibrium │ Black-Litterman │
│ String │     Float64 │         Float64 │
├────────┼─────────────┼─────────────────┤
│   AAPL │       0.0 % │        70.119 % │
│    AMD │    78.713 % │        23.276 % │
│    BAC │       0.0 % │           0.0 % │
│    BBY │       0.0 % │         1.041 % │
│    CVX │       0.0 % │           0.0 % │
│     GE │       0.0 % │           0.0 % │
│     HD │       0.0 % │           0.0 % │
│    JNJ │       0.0 % │           0.0 % │
│    JPM │       0.0 % │           0.0 % │
│     KO │       0.0 % │           0.0 % │
│    LLY │       0.0 % │           0.0 % │
│    MRK │       0.0 % │           0.0 % │
│   MSFT │       0.0 % │           0.0 % │
│    PEP │       0.0 % │           0.0 % │
│      ⋮ │           ⋮ │               ⋮ │
└────────┴─────────────┴─────────────────┘
                            6 rows omitted
…
