Risk budgeting | PortfolioOptimisers.jl
…
To verify the budgets were met, we compute the realised risk contributions. The risk measure must be parametrised with the prior covariance via factory before evaluating it.
julia
rf = factory(r, pr)
rc_eq = risk_contribution(rf, res_eq.w, pr.X);
rc_eq ./= sum(rc_eq);
rc_inc = risk_contribution(rf, res_inc.w, pr.X);
rc_inc ./= sum(rc_inc);

pretty_table(DataFrame(; :assets => rd.nx, Symbol("Eq weight") => res_eq.w,
                       Symbol("Eq risk") => rc_eq, Symbol("Incr weight") => res_inc.w,
                       Symbol("Incr risk") => rc_inc); formatters = [resfmt])

┌────────┬───────────┬─────────┬─────────────┬───────────┐
│ assets │ Eq weight │ Eq risk │ Incr weight │ Incr risk │
│ String │   Float64 │ Float64 │     Float64 │   Float64 │
├────────┼───────────┼─────────┼─────────────┼───────────┤
│   AAPL │   3.313 % │   5.0 % │     0.329 % │   0.476 % │
│    AMD │   2.277 % │   5.0 % │     0.483 % │   0.952 % │
│    BAC │    3.98 % │   5.0 % │     1.206 % │   1.429 % │
│    BBY │   3.245 % │   5.0 % │     1.337 % │   1.905 % │
│    CVX │   5.173 % │   5.0 % │     2.313 % │   2.381 % │
│     GE │   3.971 % │   5.0 % │     2.418 % │   2.858 % │
│     HD │   4.182 % │   5.0 % │     2.845 % │   3.333 % │
│    JNJ │   8.221 % │   5.0 % │     5.829 % │    3.81 % │
│    JPM │   4.261 % │   5.0 % │     3.825 % │   4.286 % │
│     KO │   6.254 % │   5.0 % │     5.607 % │   4.761 % │
│    LLY │   5.377 % │   5.0 % │     5.239 % │   5.238 % │
│    MRK │   8.027 % │   5.0 % │     8.242 % │   5.714 % │
│   MSFT │   3.516 % │   5.0 % │     4.483 % │   6.191 % │
│    PEP │   6.306 % │   5.0 % │     7.813 % │   6.667 % │
│    PFE │   5.567 % │   5.0 % │     7.295 % │   7.142 % │
│      ⋮ │         ⋮ │       ⋮ │           ⋮ │         ⋮ │
└────────┴───────────┴─────────┴─────────────┴───────────┘
                                            5 rows omitted
…
Comparing the relaxed solutions against the exact log-barrier ERC of section 2 shows the price of the relaxation: on this dataset the relaxed portfolios are noticeably more concentrated than the exact ERC, so the realised risk contributions spread away from the flat 1/N target. The relaxation buys tractability, not an exact risk-parity solution — check the realised contributions when you use it.
julia
rc_b = risk_contribution(rf, res_b.w, pr.X);
rc_b ./= sum(rc_b);
rc_r = risk_contribution(rf, res_r.w, pr.X);
rc_r ./= sum(rc_r);

pretty_table(DataFrame(; :assets => rd.nx, Symbol("Log ERC risk") => rc_eq,
                       Symbol("Basic RRB risk") => rc_b,
                       Symbol("Regularised RRB risk") => rc_r); formatters = [resfmt])

┌────────┬──────────────┬────────────────┬──────────────────────┐
│ assets │ Log ERC risk │ Basic RRB risk │ Regularised RRB risk │
│ String │      Float64 │        Float64 │              Float64 │
├────────┼──────────────┼────────────────┼──────────────────────┤
│   AAPL │        5.0 % │        2.965 % │              1.963 % │
│    AMD │        5.0 % │        2.965 % │              1.963 % │
│    BAC │        5.0 % │        2.965 % │              1.963 % │
│    BBY │        5.0 % │        2.965 % │              1.963 % │
│    CVX │        5.0 % │        2.989 % │              4.235 % │
│     GE │        5.0 % │        2.965 % │              1.963 % │
│     HD │        5.0 % │        2.965 % │              1.963 % │
│    JNJ │        5.0 % │       27.581 % │             31.471 % │
│    JPM │        5.0 % │        2.965 % │              1.963 % │
│     KO │        5.0 % │        3.906 % │              7.105 % │
│    LLY │        5.0 % │        2.965 % │              1.963 % │
│    MRK │        5.0 % │       13.356 % │             15.168 % │
│   MSFT │        5.0 % │        2.965 % │              1.963 % │
│    PEP │        5.0 % │        2.965 % │              4.341 % │
│    PFE │        5.0 % │        2.965 % │              1.963 % │
│      ⋮ │            ⋮ │              ⋮ │                    ⋮ │
└────────┴──────────────┴────────────────┴──────────────────────┘
                                                   5 rows omitted
…
