Welcome to PortfolioOptimisers.jl | PortfolioOptimisers.jl
…
We can display the results in a table.
julia
# View the results.
df = DataFrame(:assets => rd.nx, :shares => mip_res.shares, :cost => mip_res.cost,
               :opt_weights => res.w, :mip_weights => mip_res.w)
pretty_table(df; formatters = [fmt2])

┌────────┬─────────┬─────────┬─────────────┬─────────────┐
│ assets │  shares │    cost │ opt_weights │ mip_weights │
│ String │ Float64 │ Float64 │     Float64 │     Float64 │
├────────┼─────────┼─────────┼─────────────┼─────────────┤
│   ACHR │     0.0 │     0.0 │       0.0 % │       0.0 % │
│    AMC │    73.0 │  223.38 │     5.324 % │      5.31 % │
│   ANVS │    22.0 │   48.84 │     1.249 % │     1.161 % │
│     BB │   273.0 │  1228.5 │    29.184 % │    29.203 % │
│   CHPT │    11.0 │  131.34 │     3.002 % │     3.122 % │
│   ENVX │     0.0 │     0.0 │       0.0 % │       0.0 % │
│   EOSE │     8.0 │   100.8 │     2.435 % │     2.396 % │
│    GME │     0.0 │     0.0 │       0.0 % │       0.0 % │
│   LCID │     1.0 │   24.77 │     0.638 % │     0.589 % │
│   LGVN │   325.0 │   256.1 │     6.089 % │     6.088 % │
│   LUNR │     0.0 │     0.0 │       0.0 % │       0.0 % │
│   MARA │     1.0 │   18.82 │     0.613 % │     0.447 % │
│   MAXN │     0.0 │     0.0 │       0.0 % │       0.0 % │
│   NVAX │    28.0 │  264.88 │      6.21 % │     6.297 % │
│   RIVN │    55.0 │  750.75 │    17.897 % │    17.847 % │
│      ⋮ │       ⋮ │       ⋮ │           ⋮ │           ⋮ │
└────────┴─────────┴─────────┴─────────────┴─────────────┘
                                            5 rows omitted
…
