Example 7: Risk factor optimisation | PortfolioOptimisers.jl
…
First let's compare the first three prior results.
The expected returns, found in the mu field, do not change much between EmpiricalPrior and FactorPrior. Which illustrates one of the reasons why it's unwise to put much stock on expected returns estimates, since they are highly uncertain and sensitive to noise. We will explore different expected returns estimators, which attempt to improve this drawback in future examples.
julia
pretty_table(DataFrame("Assets" => rd.nx, "EmpiricalPrior" => prs[1].mu,
                       "FactorPrior(Step)" => prs[2].mu,
                       "FactorPrior(DimRed)" => prs[3].mu); formatters = [mmtfmt],
             title = "Expected returns",
             source_notes = "prs[1].mu ≈ prs[1].mu ≈ prs[3].mu: $(prs[1].mu ≈ prs[1].mu ≈ prs[3].mu)")

                          Expected returns
┌────────┬────────────────┬───────────────────┬─────────────────────┐
│ Assets │ EmpiricalPrior │ FactorPrior(Step) │ FactorPrior(DimRed) │
│ String │        Float64 │           Float64 │             Float64 │
├────────┼────────────────┼───────────────────┼─────────────────────┤
│   AAPL │       -0.113 % │          -0.113 % │            -0.113 % │
│    AMD │       -0.281 % │          -0.281 % │            -0.281 % │
│    BAC │       -0.093 % │          -0.093 % │            -0.093 % │
│    BBY │       -0.028 % │          -0.028 % │            -0.028 % │
│    CVX │        0.195 % │           0.195 % │             0.195 % │
│     GE │       -0.034 % │          -0.034 % │            -0.034 % │
│     HD │       -0.071 % │          -0.071 % │            -0.071 % │
│    JNJ │        0.031 % │           0.031 % │             0.031 % │
│    JPM │       -0.042 % │          -0.042 % │            -0.042 % │
│     KO │         0.05 % │            0.05 % │              0.05 % │
│    LLY │        0.131 % │           0.131 % │             0.131 % │
│    MRK │        0.167 % │           0.167 % │             0.167 % │
│   MSFT │       -0.121 % │          -0.121 % │            -0.121 % │
│      ⋮ │              ⋮ │                 ⋮ │                   ⋮ │
└────────┴────────────────┴───────────────────┴─────────────────────┘
                                                       7 rows omitted
…
pretty_table(DataFrame([rd.nx prs[1].sigma], ["Assets"; rd.nx]); formatters = [mmtfmt],
             title = "EmpiricalPrior Covariance",
             source_notes = "Condition number EmpiricalPrior: $(round(cond(prs[1].sigma); digits = 3))")
pretty_table(DataFrame([rd.nx prs[2].sigma], ["Assets"; rd.nx]); formatters = [mmtfmt],
             title = "FactorPrior(Step) Covariance",
             source_notes = "Condition number FactorPrior(Step): $(round(cond(prs[2].sigma); digits = 3))")
pretty_table(DataFrame([rd.nx prs[3].sigma], ["Assets"; rd.nx]); formatters = [mmtfmt],
             title = "FactorPrior(DimRed) Covariance",
             source_notes = "Condition number FactorPrior(DimRed): $(round(cond(prs[3].sigma); digits = 3))")

                           EmpiricalPrior Covariance
┌────────┬─────────┬─────────┬─────────┬─────────┬─────────┬─────────┬──────────
│ Assets │    AAPL │     AMD │     BAC │     BBY │     CVX │      GE │      HD ⋯
│    Any │     Any │     Any │     Any │     Any │     Any │     Any │     Any ⋯
├────────┼─────────┼─────────┼─────────┼─────────┼─────────┼─────────┼──────────
│   AAPL │  0.05 % │ 0.063 % │ 0.026 % │ 0.034 % │ 0.014 % │ 0.027 % │ 0.026 % ⋯
│    AMD │ 0.063 % │ 0.147 % │ 0.044 % │ 0.057 % │ 0.025 % │ 0.049 % │ 0.039 % ⋯
│    BAC │ 0.026 % │ 0.044 % │ 0.042 % │ 0.026 % │ 0.015 % │ 0.028 % │ 0.017 % ⋯
│    BBY │ 0.034 % │ 0.057 % │ 0.026 % │ 0.081 % │ 0.013 % │ 0.027 % │ 0.037 % ⋯
│    CVX │ 0.014 % │ 0.025 % │ 0.015 % │ 0.013 % │ 0.043 % │ 0.017 % │ 0.007 % ⋯
│     GE │ 0.027 % │ 0.049 % │ 0.028 % │ 0.027 % │ 0.017 % │ 0.048 % │ 0.017 % ⋯
│     HD │ 0.026 % │ 0.039 % │ 0.017 % │ 0.037 % │ 0.007 % │ 0.017 % │ 0.039 % ⋯
│    JNJ │ 0.009 % │ 0.008 % │ 0.007 % │ 0.009 % │ 0.003 % │ 0.006 % │ 0.008 % ⋯
│    JPM │ 0.023 % │ 0.037 % │ 0.034 % │ 0.025 % │ 0.012 % │ 0.025 % │ 0.018 % ⋯
│     KO │ 0.014 % │ 0.017 % │ 0.011 % │ 0.014 % │ 0.005 % │ 0.011 % │ 0.012 % ⋯
│    LLY │ 0.014 % │ 0.018 % │ 0.009 % │ 0.012 % │ 0.007 % │ 0.011 % │ 0.013 % ⋯
│    MRK │ 0.008 % │ 0.005 % │ 0.007 % │ 0.005 % │ 0.005 % │ 0.006 % │ 0.006 % ⋯
│   MSFT │ 0.041 % │ 0.061 % │ 0.025 % │ 0.032 % │ 0.012 % │ 0.023 % │ 0.027 % ⋯
│      ⋮ │       ⋮ │       ⋮ │       ⋮ │       ⋮ │       ⋮ │       ⋮ │       ⋮ ⋱
└────────┴─────────┴─────────┴─────────┴─────────┴─────────┴─────────┴──────────
                                                   13 columns and 7 rows omitted
Condition number EmpiricalPrior: 177.279
                          FactorPrior(Step) Covariance
┌────────┬─────────┬─────────┬─────────┬─────────┬─────────┬─────────┬──────────
│ Assets │    AAPL │     AMD │     BAC │     BBY │     CVX │      GE │      HD ⋯
│    Any │     Any │     Any │     Any │     Any │     Any │     Any │     Any ⋯
├────────┼─────────┼─────────┼─────────┼─────────┼─────────┼─────────┼──────────
│   AAPL │  0.05 % │ 0.061 % │ 0.026 % │ 0.036 % │ 0.016 % │ 0.029 % │ 0.029 % ⋯
│    AMD │ 0.061 % │ 0.147 % │ 0.046 % │ 0.059 % │  0.03 % │ 0.047 % │ 0.044 % ⋯
│    BAC │ 0.026 % │ 0.046 % │ 0.042 % │ 0.028 % │ 0.016 % │ 0.025 % │  0.02 % ⋯
│    BBY │ 0.036 % │ 0.059 % │ 0.028 % │ 0.081 % │ 0.017 % │ 0.031 % │ 0.029 % ⋯
│    CVX │ 0.016 % │  0.03 % │ 0.016 % │ 0.017 % │ 0.043 % │ 0.016 % │ 0.011 % ⋯
│     GE │ 0.029 % │ 0.047 % │ 0.025 % │ 0.031 % │ 0.016 % │ 0.048 % │ 0.022 % ⋯
│     HD │ 0.029 % │ 0.044 % │  0.02 % │ 0.029 % │ 0.011 % │ 0.022 % │ 0.039 % ⋯
│    JNJ │ 0.009 % │ 0.009 % │ 0.006 % │ 0.009 % │ 0.002 % │ 0.008 % │ 0.008 % ⋯
│    JPM │ 0.023 % │ 0.039 % │ 0.022 % │ 0.026 % │ 0.014 % │ 0.024 % │ 0.019 % ⋯
│     KO │ 0.014 % │ 0.017 % │  0.01 % │ 0.015 % │ 0.005 % │ 0.012 % │ 0.012 % ⋯
│    LLY │ 0.016 % │  0.02 % │  0.01 % │ 0.014 % │ 0.005 % │ 0.012 % │ 0.013 % ⋯
│    MRK │ 0.009 % │ 0.009 % │ 0.006 % │ 0.008 % │ 0.003 % │ 0.008 % │ 0.007 % ⋯
│   MSFT │ 0.038 % │  0.06 % │ 0.024 % │ 0.035 % │ 0.014 % │ 0.027 % │ 0.028 % ⋯
│      ⋮ │       ⋮ │       ⋮ │       ⋮ │       ⋮ │       ⋮ │       ⋮ │       ⋮ ⋱
└────────┴─────────┴─────────┴─────────┴─────────┴─────────┴─────────┴──────────
                                                   13 columns and 7 rows omitted
Condition number FactorPrior(Step): 73.636
                         FactorPrior(DimRed) Covariance
┌────────┬─────────┬─────────┬─────────┬─────────┬─────────┬─────────┬──────────
│ Assets │    AAPL │     AMD │     BAC │     BBY │     CVX │      GE │      HD ⋯
│    Any │     Any │     Any │     Any │     Any │     Any │     Any │     Any ⋯
├────────┼─────────┼─────────┼─────────┼─────────┼─────────┼─────────┼──────────
│   AAPL │  0.05 % │ 0.059 % │ 0.026 % │ 0.036 % │ 0.015 % │ 0.028 % │ 0.028 % ⋯
│    AMD │ 0.059 % │ 0.147 % │ 0.046 % │ 0.059 % │ 0.028 % │ 0.048 % │ 0.043 % ⋯
│    BAC │ 0.026 % │ 0.046 % │ 0.042 % │ 0.028 % │ 0.017 % │ 0.026 % │ 0.019 % ⋯
│    BBY │ 0.036 % │ 0.059 % │ 0.028 % │ 0.081 % │ 0.016 % │  0.03 % │ 0.028 % ⋯
│    CVX │ 0.015 % │ 0.028 % │ 0.017 % │ 0.016 % │ 0.043 % │ 0.017 % │  0.01 % ⋯
│     GE │ 0.028 % │ 0.048 % │ 0.026 % │  0.03 % │ 0.017 % │ 0.048 % │  0.02 % ⋯
│     HD │ 0.028 % │ 0.043 % │ 0.019 % │ 0.028 % │  0.01 % │  0.02 % │ 0.039 % ⋯
│    JNJ │ 0.009 % │ 0.008 % │ 0.006 % │ 0.008 % │ 0.003 % │ 0.006 % │ 0.008 % ⋯
│    JPM │ 0.025 % │ 0.041 % │ 0.023 % │ 0.026 % │ 0.015 % │ 0.024 % │ 0.018 % ⋯
│     KO │ 0.014 % │ 0.017 % │  0.01 % │ 0.014 % │ 0.005 % │ 0.011 % │ 0.012 % ⋯
│    LLY │ 0.016 % │ 0.019 % │  0.01 % │ 0.013 % │ 0.005 % │ 0.011 % │ 0.013 % ⋯
│    MRK │ 0.008 % │ 0.007 % │ 0.006 % │ 0.007 % │ 0.003 % │ 0.007 % │ 0.007 % ⋯
│   MSFT │ 0.036 % │ 0.059 % │ 0.024 % │ 0.034 % │ 0.013 % │ 0.026 % │ 0.028 % ⋯
│      ⋮ │       ⋮ │       ⋮ │       ⋮ │       ⋮ │       ⋮ │       ⋮ │       ⋮ ⋱
└────────┴─────────┴─────────┴─────────┴─────────┴─────────┴─────────┴──────────
                                                   13 columns and 7 rows omitted
…
pretty_table(DataFrame([rd.nx prs[4].V], ["Assets"; rd.nx]); formatters = [hmmtfmt],
             title = "HighOrderPriorEstimator Coskewness Negative Spectral Slices",
             source_notes = "Condition number HighOrderPriorEstimator: $(round(cond(prs[4].V); digits = 3))")
pretty_table(DataFrame([rd.nx prs[7].V], ["Assets"; rd.nx]); formatters = [hmmtfmt],
             title = "HighOrderFactorPriorEstimator(Step) Coskewness Negative Spectral Slices",
             source_notes = "Condition number HighOrderFactorPriorEstimator(Step): $(round(cond(prs[7].V); digits = 3))")
pretty_table(DataFrame([rd.nx prs[8].V], ["Assets"; rd.nx]); formatters = [hmmtfmt],
             title = "HighOrderFactorPriorEstimator(DimRed) Coskewness Negative Spectral Slices",
             source_notes = "Condition number HighOrderFactorPriorEstimator(DimRed): $(round(cond(prs[8].V); digits = 3))")

                       HighOrderPriorEstimator Coskewness
┌───────────────────┬────────────┬────────────┬────────────┬────────────┬───────
│ Assets^2 / Assets │  AAPL_AAPL │   AAPL_AMD │   AAPL_BAC │   AAPL_BBY │   AA ⋯
│               Any │        Any │        Any │        Any │        Any │      ⋯
├───────────────────┼────────────┼────────────┼────────────┼────────────┼───────
│              AAPL │  3.67e-4 % │  4.74e-4 % │  1.96e-4 % │  0.28e-4 % │ -0.7 ⋯
│               AMD │  4.74e-4 % │  6.48e-4 % │  2.01e-4 % │  1.36e-4 % │ -0.8 ⋯
│               BAC │  1.96e-4 % │  2.01e-4 % │   2.1e-4 % │ -0.03e-4 % │  0.4 ⋯
│               BBY │  0.28e-4 % │  1.36e-4 % │ -0.03e-4 % │ -1.83e-4 % │ -1.5 ⋯
│               CVX │ -0.75e-4 % │ -0.88e-4 % │  0.41e-4 % │ -1.52e-4 % │  0.7 ⋯
│                GE │  0.06e-4 % │ -0.83e-4 % │   0.2e-4 % │ -0.49e-4 % │ -1.1 ⋯
│                HD │  1.89e-4 % │  3.71e-4 % │  0.78e-4 % │ -0.41e-4 % │  -0. ⋯
│               JNJ │ -0.09e-4 % │ -0.39e-4 % │   0.3e-4 % │ -0.81e-4 % │ -0.4 ⋯
│               JPM │  1.84e-4 % │   2.2e-4 % │  2.14e-4 % │  0.27e-4 % │  0.4 ⋯
│                KO │  0.95e-4 % │  1.21e-4 % │  0.55e-4 % │ -1.15e-4 % │ -0.2 ⋯
│               LLY │  0.52e-4 % │ -0.39e-4 % │ -0.08e-4 % │ -0.94e-4 % │ -1.1 ⋯
│               MRK │  0.15e-4 % │ -0.46e-4 % │  0.23e-4 % │ -0.57e-4 % │ -0.1 ⋯
│              MSFT │  2.51e-4 % │  3.37e-4 % │  1.52e-4 % │  0.68e-4 % │ -0.7 ⋯
│                 ⋮ │          ⋮ │          ⋮ │          ⋮ │          ⋮ │      ⋱
└───────────────────┴────────────┴────────────┴────────────┴────────────┴───────
                                                  396 columns and 7 rows omitted
Condition number HighOrderPriorEstimator: 32.817
                 HighOrderFactorPriorEstimator(Step) Coskewness
┌───────────────────┬────────────┬────────────┬────────────┬────────────┬───────
│ Assets^2 / Assets │  AAPL_AAPL │   AAPL_AMD │   AAPL_BAC │   AAPL_BBY │   AA ⋯
│               Any │        Any │        Any │        Any │        Any │      ⋯
├───────────────────┼────────────┼────────────┼────────────┼────────────┼───────
│              AAPL │  1.25e-4 % │  1.79e-4 % │  0.41e-4 % │   1.3e-4 % │  0.2 ⋯
│               AMD │  1.79e-4 % │  3.39e-4 % │  0.82e-4 % │  2.55e-4 % │  0.4 ⋯
│               BAC │  0.41e-4 % │  0.82e-4 % │  0.11e-4 % │  0.52e-4 % │  0.0 ⋯
│               BBY │   1.3e-4 % │  2.55e-4 % │  0.52e-4 % │   1.6e-4 % │  0.2 ⋯
│               CVX │  0.24e-4 % │  0.44e-4 % │  0.06e-4 % │  0.29e-4 % │  0.0 ⋯
│                GE │  0.51e-4 % │  1.06e-4 % │  0.14e-4 % │  0.64e-4 % │  0.0 ⋯
│                HD │  0.78e-4 % │  1.62e-4 % │  0.32e-4 % │  1.07e-4 % │  0.1 ⋯
│               JNJ │ -0.18e-4 % │ -0.14e-4 % │ -0.08e-4 % │ -0.18e-4 % │ -0.0 ⋯
│               JPM │  0.41e-4 % │  0.83e-4 % │  0.07e-4 % │  0.46e-4 % │  0.0 ⋯
│                KO │  0.06e-4 % │  0.28e-4 % │ -0.03e-4 % │  0.09e-4 % │  -0. ⋯
│               LLY │ -0.38e-4 % │ -0.44e-4 % │ -0.16e-4 % │ -0.27e-4 % │ -0.0 ⋯
│               MRK │ -0.34e-4 % │ -0.43e-4 % │ -0.15e-4 % │ -0.36e-4 % │ -0.0 ⋯
│              MSFT │  0.95e-4 % │  1.94e-4 % │  0.46e-4 % │  1.45e-4 % │  0.2 ⋯
│                 ⋮ │          ⋮ │          ⋮ │          ⋮ │          ⋮ │      ⋱
└───────────────────┴────────────┴────────────┴────────────┴────────────┴───────
                                                  396 columns and 7 rows omitted
Condition number HighOrderFactorPriorEstimator(Step): 298.639
                HighOrderFactorPriorEstimator(DimRed) Coskewness
┌───────────────────┬────────────┬────────────┬────────────┬────────────┬───────
│ Assets^2 / Assets │  AAPL_AAPL │   AAPL_AMD │   AAPL_BAC │   AAPL_BBY │   AA ⋯
│               Any │        Any │        Any │        Any │        Any │      ⋯
├───────────────────┼────────────┼────────────┼────────────┼────────────┼───────
│              AAPL │  0.63e-4 % │  1.04e-4 % │  0.07e-4 % │  0.87e-4 % │ -0.1 ⋯
│               AMD │  1.04e-4 % │  2.31e-4 % │   0.3e-4 % │  1.95e-4 % │ -0.1 ⋯
│               BAC │  0.07e-4 % │   0.3e-4 % │ -0.07e-4 % │  0.25e-4 % │ -0.1 ⋯
│               BBY │  0.87e-4 % │  1.95e-4 % │  0.25e-4 % │  1.32e-4 % │ -0.0 ⋯
│               CVX │ -0.11e-4 % │ -0.13e-4 % │ -0.11e-4 % │ -0.05e-4 % │ -0.0 ⋯
│                GE │  0.05e-4 % │   0.3e-4 % │ -0.08e-4 % │  0.26e-4 % │ -0.1 ⋯
│                HD │  0.47e-4 % │  1.21e-4 % │  0.13e-4 % │  0.87e-4 % │ -0.0 ⋯
│               JNJ │ -0.21e-4 % │ -0.19e-4 % │ -0.12e-4 % │ -0.18e-4 % │ -0.0 ⋯
│               JPM │  0.04e-4 % │  0.28e-4 % │ -0.07e-4 % │   0.2e-4 % │  -0. ⋯
│                KO │ -0.08e-4 % │   0.1e-4 % │ -0.08e-4 % │  0.01e-4 % │ -0.0 ⋯
│               LLY │ -0.41e-4 % │ -0.47e-4 % │ -0.21e-4 % │ -0.25e-4 % │  -0. ⋯
│               MRK │ -0.38e-4 % │ -0.52e-4 % │ -0.19e-4 % │  -0.4e-4 % │ -0.0 ⋯
│              MSFT │  0.46e-4 % │  1.21e-4 % │  0.12e-4 % │  1.05e-4 % │ -0.0 ⋯
│                 ⋮ │          ⋮ │          ⋮ │          ⋮ │          ⋮ │      ⋱
└───────────────────┴────────────┴────────────┴────────────┴────────────┴───────
                                                  396 columns and 7 rows omitted
Condition number HighOrderFactorPriorEstimator(DimRed): 151.105
          HighOrderPriorEstimator Coskewness Negative Spectral Slices
┌────────┬────────────┬────────────┬────────────┬────────────┬────────────┬─────
│ Assets │       AAPL │        AMD │        BAC │        BBY │        CVX │    ⋯
│    Any │        Any │        Any │        Any │        Any │        Any │    ⋯
├────────┼────────────┼────────────┼────────────┼────────────┼────────────┼─────
│   AAPL │ 10.95e-4 % │  8.74e-4 % │  0.42e-4 % │ 11.72e-4 % │  6.82e-4 % │  8 ⋯
│    AMD │  8.74e-4 % │ 39.47e-4 % │  3.05e-4 % │ 10.18e-4 % │ 16.53e-4 % │ 23 ⋯
│    BAC │  0.42e-4 % │  3.05e-4 % │  4.83e-4 % │  3.92e-4 % │ -0.99e-4 % │  0 ⋯
│    BBY │ 11.72e-4 % │ 10.18e-4 % │  3.92e-4 % │ 44.51e-4 % │  3.51e-4 % │  6 ⋯
│    CVX │  6.82e-4 % │ 16.53e-4 % │ -0.99e-4 % │  3.51e-4 % │ 31.05e-4 % │ 14 ⋯
│     GE │  8.11e-4 % │ 23.22e-4 % │  0.02e-4 % │  6.39e-4 % │ 14.81e-4 % │ 37 ⋯
│     HD │  8.11e-4 % │   1.1e-4 % │  2.36e-4 % │ 21.55e-4 % │ -1.51e-4 % │  1 ⋯
│    JNJ │  2.67e-4 % │  0.82e-4 % │ -0.36e-4 % │  5.79e-4 % │  1.36e-4 % │ -0 ⋯
│    JPM │ -1.57e-4 % │ -2.69e-4 % │  2.12e-4 % │ -2.19e-4 % │ -5.87e-4 % │ -2 ⋯
│     KO │  5.55e-4 % │  1.42e-4 % │  1.57e-4 % │ 15.44e-4 % │  2.42e-4 % │  3 ⋯
│    LLY │  3.15e-4 % │  5.99e-4 % │  0.52e-4 % │   7.1e-4 % │  3.94e-4 % │  5 ⋯
│    MRK │  1.39e-4 % │  0.44e-4 % │  0.02e-4 % │   0.1e-4 % │  2.34e-4 % │  4 ⋯
│   MSFT │  7.36e-4 % │ 13.13e-4 % │  0.08e-4 % │   8.4e-4 % │  6.19e-4 % │ 10 ⋯
│      ⋮ │          ⋮ │          ⋮ │          ⋮ │          ⋮ │          ⋮ │    ⋱
└────────┴────────────┴────────────┴────────────┴────────────┴────────────┴─────
                                                   15 columns and 7 rows omitted
Condition number HighOrderPriorEstimator: 129.142
    HighOrderFactorPriorEstimator(Step) Coskewness Negative Spectral Slices
┌────────┬───────────┬───────────┬───────────┬───────────┬───────────┬──────────
│ Assets │      AAPL │       AMD │       BAC │       BBY │       CVX │         ⋯
│    Any │       Any │       Any │       Any │       Any │       Any │       A ⋯
├────────┼───────────┼───────────┼───────────┼───────────┼───────────┼──────────
│   AAPL │ 2.62e-4 % │ 1.87e-4 % │ 1.12e-4 % │ 1.89e-4 % │ 0.31e-4 % │ 1.58e-4 ⋯
│    AMD │ 1.87e-4 % │ 5.58e-4 % │  0.9e-4 % │ 0.69e-4 % │ 0.55e-4 % │  0.7e-4 ⋯
│    BAC │ 1.12e-4 % │  0.9e-4 % │ 1.23e-4 % │ 1.09e-4 % │ 0.61e-4 % │ 1.42e-4 ⋯
│    BBY │ 1.89e-4 % │ 0.69e-4 % │ 1.09e-4 % │ 2.99e-4 % │ 0.29e-4 % │  1.7e-4 ⋯
│    CVX │ 0.31e-4 % │ 0.55e-4 % │ 0.61e-4 % │ 0.29e-4 % │ 0.41e-4 % │ 0.55e-4 ⋯
│     GE │ 1.58e-4 % │  0.7e-4 % │ 1.42e-4 % │  1.7e-4 % │ 0.55e-4 % │ 4.22e-4 ⋯
│     HD │ 2.05e-4 % │ 0.81e-4 % │ 1.15e-4 % │ 2.07e-4 % │ 0.28e-4 % │ 1.78e-4 ⋯
│    JNJ │ 1.71e-4 % │ 0.02e-4 % │ 0.89e-4 % │ 1.43e-4 % │ 0.08e-4 % │ 1.57e-4 ⋯
│    JPM │ 1.22e-4 % │ 0.59e-4 % │ 1.46e-4 % │ 1.54e-4 % │ 0.64e-4 % │  1.9e-4 ⋯
│     KO │ 1.84e-4 % │ 0.34e-4 % │ 1.33e-4 % │ 1.77e-4 % │ 0.34e-4 % │ 2.09e-4 ⋯
│    LLY │  2.7e-4 % │ 1.05e-4 % │ 1.49e-4 % │ 1.23e-4 % │ 0.32e-4 % │ 2.29e-4 ⋯
│    MRK │ 1.78e-4 % │ 0.07e-4 % │ 0.93e-4 % │ 1.27e-4 % │  0.1e-4 % │ 1.59e-4 ⋯
│   MSFT │ 2.62e-4 % │ 2.11e-4 % │  1.0e-4 % │ 1.64e-4 % │ 0.26e-4 % │ 1.42e-4 ⋯
│      ⋮ │         ⋮ │         ⋮ │         ⋮ │         ⋮ │         ⋮ │         ⋱
└────────┴───────────┴───────────┴───────────┴───────────┴───────────┴──────────
                                                   15 columns and 7 rows omitted
Condition number HighOrderFactorPriorEstimator(Step): 33084.844
   HighOrderFactorPriorEstimator(DimRed) Coskewness Negative Spectral Slices
┌────────┬───────────┬───────────┬───────────┬───────────┬───────────┬──────────
│ Assets │      AAPL │       AMD │       BAC │       BBY │       CVX │         ⋯
│    Any │       Any │       Any │       Any │       Any │       Any │       A ⋯
├────────┼───────────┼───────────┼───────────┼───────────┼───────────┼──────────
│   AAPL │ 3.55e-4 % │ 2.79e-4 % │ 1.93e-4 % │ 1.84e-4 % │ 1.05e-4 % │ 2.32e-4 ⋯
│    AMD │ 2.79e-4 % │ 6.59e-4 % │ 1.62e-4 % │ 0.64e-4 % │ 1.12e-4 % │ 1.89e-4 ⋯
│    BAC │ 1.93e-4 % │ 1.62e-4 % │ 1.62e-4 % │ 1.02e-4 % │  1.1e-4 % │ 1.77e-4 ⋯
│    BBY │ 1.84e-4 % │ 0.64e-4 % │ 1.02e-4 % │ 3.15e-4 % │ 0.15e-4 % │ 1.07e-4 ⋯
│    CVX │ 1.05e-4 % │ 1.12e-4 % │  1.1e-4 % │ 0.15e-4 % │ 0.91e-4 % │ 1.19e-4 ⋯
│     GE │ 2.32e-4 % │ 1.89e-4 % │ 1.77e-4 % │ 1.07e-4 % │ 1.19e-4 % │ 4.14e-4 ⋯
│     HD │ 2.59e-4 % │ 1.14e-4 % │ 1.28e-4 % │ 2.19e-4 % │ 0.45e-4 % │ 1.55e-4 ⋯
│    JNJ │  2.2e-4 % │ 0.69e-4 % │  1.3e-4 % │ 1.29e-4 % │ 0.68e-4 % │ 1.58e-4 ⋯
│    JPM │ 2.07e-4 % │ 1.41e-4 % │ 1.59e-4 % │ 1.23e-4 % │ 1.01e-4 % │ 1.77e-4 ⋯
│     KO │ 2.45e-4 % │ 0.73e-4 % │ 1.47e-4 % │ 1.84e-4 % │  0.7e-4 % │ 1.75e-4 ⋯
│    LLY │ 3.75e-4 % │ 2.24e-4 % │ 2.14e-4 % │ 1.01e-4 % │ 1.34e-4 % │ 2.68e-4 ⋯
│    MRK │ 2.47e-4 % │  1.0e-4 % │ 1.57e-4 % │ 1.04e-4 % │ 0.94e-4 % │  1.9e-4 ⋯
│   MSFT │ 3.55e-4 % │ 3.02e-4 % │  1.7e-4 % │ 1.49e-4 % │  0.9e-4 % │ 2.12e-4 ⋯
│      ⋮ │         ⋮ │         ⋮ │         ⋮ │         ⋮ │         ⋮ │         ⋱
└────────┴───────────┴───────────┴───────────┴───────────┴───────────┴──────────
                                                   15 columns and 7 rows omitted
…
