Example 8: Improving moment estimation | PortfolioOptimisers.jl
…
2.1 Expected returns ​
First let's view the expected returns.
julia
pretty_table(DataFrame("Assets" => rd.nx, "Vanilla" => prs[1].mu, "BS(VW)" => prs[2].mu,
                       "BS(MSE)" => prs[3].mu, "BOP(GM)" => prs[4].mu,
                       "BOP(VW)" => prs[5].mu, "BOP(MSE)" => prs[6].mu);
             formatters = [mmtfmt], title = "Expected returns")

                              Expected returns
┌────────┬──────────┬──────────┬──────────┬──────────┬──────────┬──────────┐
│ Assets │  Vanilla │   BS(VW) │  BS(MSE) │  BOP(GM) │  BOP(VW) │ BOP(MSE) │
│ String │  Float64 │  Float64 │  Float64 │  Float64 │  Float64 │  Float64 │
├────────┼──────────┼──────────┼──────────┼──────────┼──────────┼──────────┤
│   AAPL │ -0.113 % │  0.009 % │ -0.045 % │  0.064 % │  0.082 % │  0.063 % │
│    AMD │ -0.281 % │ -0.056 % │ -0.116 % │  0.158 % │  0.176 % │  0.157 % │
│    BAC │ -0.093 % │  0.016 % │ -0.037 % │  0.053 % │  0.071 % │  0.052 % │
│    BBY │ -0.028 % │  0.042 % │  -0.01 % │  0.016 % │  0.034 % │  0.016 % │
│    CVX │  0.195 % │  0.128 % │  0.084 % │ -0.108 % │  -0.09 % │ -0.109 % │
│     GE │ -0.034 % │  0.039 % │ -0.012 % │   0.02 % │  0.038 % │  0.019 % │
│     HD │ -0.071 % │  0.025 % │ -0.028 % │   0.04 % │  0.058 % │   0.04 % │
│    JNJ │  0.031 % │  0.064 % │  0.015 % │ -0.017 % │  0.001 % │ -0.017 % │
│    JPM │ -0.042 % │  0.036 % │ -0.015 % │  0.024 % │  0.042 % │  0.023 % │
│     KO │   0.05 % │  0.072 % │  0.023 % │ -0.027 % │ -0.009 % │ -0.028 % │
│    LLY │  0.131 % │  0.103 % │  0.057 % │ -0.073 % │ -0.055 % │ -0.073 % │
│    MRK │  0.167 % │  0.117 % │  0.072 % │ -0.093 % │ -0.075 % │ -0.093 % │
│   MSFT │ -0.121 % │  0.006 % │ -0.049 % │  0.068 % │  0.086 % │  0.068 % │
│    PEP │  0.039 % │  0.068 % │  0.019 % │ -0.021 % │ -0.003 % │ -0.022 % │
│      ⋮ │        ⋮ │        ⋮ │        ⋮ │        ⋮ │        ⋮ │        ⋮ │
└────────┴──────────┴──────────┴──────────┴──────────┴──────────┴──────────┘
                                                              6 rows omitted
…
                              Covariance: Vanilla
┌────────┬─────────┬─────────┬─────────┬─────────┬─────────┬─────────┬──────────
│ Assets │    AAPL │     AMD │     BAC │     BBY │     CVX │      GE │      HD ⋯
│    Any │     Any │     Any │     Any │     Any │     Any │     Any │     Any ⋯
├────────┼─────────┼─────────┼─────────┼─────────┼─────────┼─────────┼──────────
│   AAPL │  0.05 % │ 0.063 % │ 0.026 % │ 0.034 % │ 0.014 % │ 0.027 % │ 0.026 % ⋯
│    AMD │ 0.063 % │ 0.147 % │ 0.044 % │ 0.057 % │ 0.025 % │ 0.049 % │ 0.039 % ⋯
│    BAC │ 0.026 % │ 0.044 % │ 0.042 % │ 0.026 % │ 0.015 % │ 0.028 % │ 0.017 % ⋯
│    BBY │ 0.034 % │ 0.057 % │ 0.026 % │ 0.081 % │ 0.013 % │ 0.027 % │ 0.037 % ⋯
│    CVX │ 0.014 % │ 0.025 % │ 0.015 % │ 0.013 % │ 0.043 % │ 0.017 % │ 0.007 % ⋯
│     GE │ 0.027 % │ 0.049 % │ 0.028 % │ 0.027 % │ 0.017 % │ 0.048 % │ 0.017 % ⋯
│     HD │ 0.026 % │ 0.039 % │ 0.017 % │ 0.037 % │ 0.007 % │ 0.017 % │ 0.039 % ⋯
│    JNJ │ 0.009 % │ 0.008 % │ 0.007 % │ 0.009 % │ 0.003 % │ 0.006 % │ 0.008 % ⋯
│    JPM │ 0.023 % │ 0.037 % │ 0.034 % │ 0.025 % │ 0.012 % │ 0.025 % │ 0.018 % ⋯
│     KO │ 0.014 % │ 0.017 % │ 0.011 % │ 0.014 % │ 0.005 % │ 0.011 % │ 0.012 % ⋯
│    LLY │ 0.014 % │ 0.018 % │ 0.009 % │ 0.012 % │ 0.007 % │ 0.011 % │ 0.013 % ⋯
│    MRK │ 0.008 % │ 0.005 % │ 0.007 % │ 0.005 % │ 0.005 % │ 0.006 % │ 0.006 % ⋯
│   MSFT │ 0.041 % │ 0.061 % │ 0.025 % │ 0.032 % │ 0.012 % │ 0.023 % │ 0.027 % ⋯
│      ⋮ │       ⋮ │       ⋮ │       ⋮ │       ⋮ │       ⋮ │       ⋮ │       ⋮ ⋱
└────────┴─────────┴─────────┴─────────┴─────────┴─────────┴─────────┴──────────
                                                   13 columns and 7 rows omitted
Condition number Vanilla: 177.279
                           Covariance: Fixed denoise
┌────────┬─────────┬─────────┬─────────┬─────────┬─────────┬─────────┬──────────
│ Assets │    AAPL │     AMD │     BAC │     BBY │     CVX │      GE │      HD ⋯
│    Any │     Any │     Any │     Any │     Any │     Any │     Any │     Any ⋯
├────────┼─────────┼─────────┼─────────┼─────────┼─────────┼─────────┼──────────
│   AAPL │  0.05 % │ 0.052 % │ 0.027 % │ 0.037 % │ 0.013 % │ 0.028 % │ 0.026 % ⋯
│    AMD │ 0.052 % │ 0.147 % │ 0.047 % │  0.06 % │ 0.022 % │ 0.049 % │  0.04 % ⋯
│    BAC │ 0.027 % │ 0.047 % │ 0.042 % │ 0.028 % │ 0.014 % │ 0.027 % │  0.02 % ⋯
│    BBY │ 0.037 % │  0.06 % │ 0.028 % │ 0.081 % │ 0.012 % │ 0.029 % │ 0.032 % ⋯
│    CVX │ 0.013 % │ 0.022 % │ 0.014 % │ 0.012 % │ 0.043 % │ 0.017 % │ 0.007 % ⋯
│     GE │ 0.028 % │ 0.049 % │ 0.027 % │ 0.029 % │ 0.017 % │ 0.048 % │  0.02 % ⋯
│     HD │ 0.026 % │  0.04 % │  0.02 % │ 0.032 % │ 0.007 % │  0.02 % │ 0.039 % ⋯
│    JNJ │ 0.008 % │ 0.008 % │ 0.006 % │ 0.007 % │ 0.002 % │ 0.006 % │ 0.008 % ⋯
│    JPM │ 0.025 % │ 0.043 % │ 0.024 % │ 0.026 % │ 0.011 % │ 0.025 % │ 0.018 % ⋯
│     KO │ 0.014 % │ 0.017 % │  0.01 % │ 0.016 % │ 0.004 % │  0.01 % │ 0.013 % ⋯
│    LLY │ 0.014 % │ 0.015 % │ 0.012 % │ 0.011 % │ 0.007 % │ 0.012 % │ 0.011 % ⋯
│    MRK │ 0.007 % │ 0.006 % │ 0.006 % │ 0.004 % │ 0.005 % │ 0.006 % │ 0.006 % ⋯
│   MSFT │ 0.031 % │ 0.051 % │ 0.027 % │ 0.036 % │ 0.011 % │ 0.027 % │ 0.026 % ⋯
│      ⋮ │       ⋮ │       ⋮ │       ⋮ │       ⋮ │       ⋮ │       ⋮ │       ⋮ ⋱
└────────┴─────────┴─────────┴─────────┴─────────┴─────────┴─────────┴──────────
                                                   13 columns and 7 rows omitted
Condition number fixed denoise: 87.203
                           Covariance: LoGo(MaxDist)
┌────────┬─────────┬─────────┬─────────┬─────────┬─────────┬─────────┬──────────
│ Assets │    AAPL │     AMD │     BAC │     BBY │     CVX │      GE │      HD ⋯
│    Any │     Any │     Any │     Any │     Any │     Any │     Any │     Any ⋯
├────────┼─────────┼─────────┼─────────┼─────────┼─────────┼─────────┼──────────
│   AAPL │  0.05 % │ 0.063 % │ 0.026 % │ 0.034 % │ 0.013 % │ 0.027 % │ 0.026 % ⋯
│    AMD │ 0.063 % │ 0.147 % │ 0.044 % │ 0.057 % │ 0.025 % │ 0.049 % │ 0.039 % ⋯
│    BAC │ 0.026 % │ 0.044 % │ 0.042 % │ 0.022 % │ 0.015 % │ 0.028 % │ 0.015 % ⋯
│    BBY │ 0.034 % │ 0.057 % │ 0.022 % │ 0.081 % │ 0.012 % │ 0.027 % │ 0.037 % ⋯
│    CVX │ 0.013 % │ 0.025 % │ 0.015 % │ 0.012 % │ 0.043 % │ 0.017 % │ 0.008 % ⋯
│     GE │ 0.027 % │ 0.049 % │ 0.028 % │ 0.027 % │ 0.017 % │ 0.048 % │ 0.017 % ⋯
│     HD │ 0.026 % │ 0.039 % │ 0.015 % │ 0.037 % │ 0.008 % │ 0.017 % │ 0.039 % ⋯
│    JNJ │ 0.009 % │  0.01 % │ 0.004 % │ 0.006 % │ 0.002 % │ 0.005 % │ 0.005 % ⋯
│    JPM │ 0.023 % │ 0.039 % │ 0.034 % │  0.02 % │ 0.013 % │ 0.025 % │ 0.014 % ⋯
│     KO │ 0.014 % │ 0.017 % │ 0.007 % │  0.01 % │ 0.004 % │ 0.008 % │ 0.008 % ⋯
│    LLY │ 0.011 % │ 0.013 % │ 0.005 % │ 0.007 % │ 0.003 % │ 0.006 % │ 0.006 % ⋯
│    MRK │ 0.007 % │ 0.009 % │ 0.004 % │ 0.005 % │ 0.002 % │ 0.004 % │ 0.004 % ⋯
│   MSFT │ 0.041 % │ 0.061 % │ 0.023 % │ 0.033 % │ 0.012 % │ 0.025 % │ 0.027 % ⋯
│      ⋮ │       ⋮ │       ⋮ │       ⋮ │       ⋮ │       ⋮ │       ⋮ │       ⋮ ⋱
└────────┴─────────┴─────────┴─────────┴─────────┴─────────┴─────────┴──────────
                                                   13 columns and 7 rows omitted
Condition number LoGo(MaxDist): 157.814
                        Covariance: Shrunk denoise (0.5)
┌────────┬─────────┬─────────┬─────────┬─────────┬─────────┬─────────┬──────────
│ Assets │    AAPL │     AMD │     BAC │     BBY │     CVX │      GE │      HD ⋯
│    Any │     Any │     Any │     Any │     Any │     Any │     Any │     Any ⋯
├────────┼─────────┼─────────┼─────────┼─────────┼─────────┼─────────┼──────────
│   AAPL │  0.05 % │ 0.061 % │ 0.028 % │ 0.037 % │ 0.014 % │ 0.028 % │ 0.027 % ⋯
│    AMD │ 0.061 % │ 0.147 % │ 0.049 % │  0.06 % │ 0.024 % │ 0.051 % │ 0.041 % ⋯
│    BAC │ 0.028 % │ 0.049 % │ 0.042 % │ 0.027 % │ 0.015 % │ 0.029 % │ 0.019 % ⋯
│    BBY │ 0.037 % │  0.06 % │ 0.027 % │ 0.081 % │ 0.012 % │ 0.028 % │ 0.035 % ⋯
│    CVX │ 0.014 % │ 0.024 % │ 0.015 % │ 0.012 % │ 0.043 % │ 0.018 % │ 0.007 % ⋯
│     GE │ 0.028 % │ 0.051 % │ 0.029 % │ 0.028 % │ 0.018 % │ 0.048 % │ 0.018 % ⋯
│     HD │ 0.027 % │ 0.041 % │ 0.019 % │ 0.035 % │ 0.007 % │ 0.018 % │ 0.039 % ⋯
│    JNJ │ 0.009 % │ 0.008 % │ 0.007 % │ 0.008 % │ 0.002 % │ 0.006 % │ 0.008 % ⋯
│    JPM │ 0.026 % │ 0.043 % │ 0.031 % │ 0.026 % │ 0.012 % │ 0.026 % │ 0.018 % ⋯
│     KO │ 0.015 % │ 0.017 % │  0.01 % │ 0.016 % │ 0.005 % │  0.01 % │ 0.013 % ⋯
│    LLY │ 0.014 % │ 0.016 % │ 0.011 % │ 0.011 % │ 0.007 % │ 0.011 % │ 0.011 % ⋯
│    MRK │ 0.007 % │ 0.005 % │ 0.007 % │ 0.004 % │ 0.005 % │ 0.006 % │ 0.006 % ⋯
│   MSFT │ 0.038 % │  0.06 % │ 0.027 % │ 0.035 % │ 0.012 % │ 0.026 % │ 0.027 % ⋯
│      ⋮ │       ⋮ │       ⋮ │       ⋮ │       ⋮ │       ⋮ │       ⋮ │       ⋮ ⋱
└────────┴─────────┴─────────┴─────────┴─────────┴─────────┴─────────┴──────────
                                                   13 columns and 7 rows omitted
Condition number Shrunk denoise (0.5): 135.392
                    Covariance: FixedDenoise + LoGo(MaxDist)
┌────────┬─────────┬─────────┬─────────┬─────────┬─────────┬─────────┬──────────
│ Assets │    AAPL │     AMD │     BAC │     BBY │     CVX │      GE │      HD ⋯
│    Any │     Any │     Any │     Any │     Any │     Any │     Any │     Any ⋯
├────────┼─────────┼─────────┼─────────┼─────────┼─────────┼─────────┼──────────
│   AAPL │  0.05 % │ 0.052 % │ 0.027 % │ 0.037 % │ 0.013 % │ 0.028 % │ 0.026 % ⋯
│    AMD │ 0.052 % │ 0.147 % │ 0.047 % │  0.06 % │ 0.018 % │ 0.038 % │  0.04 % ⋯
│    BAC │ 0.027 % │ 0.047 % │ 0.042 % │ 0.025 % │ 0.014 % │ 0.027 % │ 0.018 % ⋯
│    BBY │ 0.037 % │  0.06 % │ 0.025 % │ 0.081 % │ 0.011 % │ 0.023 % │ 0.032 % ⋯
│    CVX │ 0.013 % │ 0.018 % │ 0.014 % │ 0.011 % │ 0.043 % │ 0.017 % │ 0.008 % ⋯
│     GE │ 0.028 % │ 0.038 % │ 0.027 % │ 0.023 % │ 0.017 % │ 0.048 % │ 0.017 % ⋯
│     HD │ 0.026 % │  0.04 % │ 0.018 % │ 0.032 % │ 0.008 % │ 0.017 % │ 0.039 % ⋯
│    JNJ │ 0.008 % │ 0.011 % │ 0.005 % │ 0.008 % │ 0.002 % │ 0.005 % │ 0.008 % ⋯
│    JPM │ 0.025 % │ 0.036 % │ 0.024 % │ 0.021 % │ 0.011 % │ 0.025 % │ 0.016 % ⋯
│     KO │ 0.014 % │ 0.019 % │ 0.009 % │ 0.014 % │ 0.004 % │ 0.009 % │ 0.013 % ⋯
│    LLY │ 0.011 % │ 0.015 % │ 0.007 % │ 0.011 % │ 0.003 % │ 0.007 % │ 0.011 % ⋯
│    MRK │ 0.007 % │  0.01 % │ 0.005 % │ 0.007 % │ 0.002 % │ 0.005 % │ 0.007 % ⋯
│   MSFT │ 0.031 % │ 0.051 % │ 0.027 % │  0.03 % │ 0.011 % │ 0.023 % │ 0.026 % ⋯
│      ⋮ │       ⋮ │       ⋮ │       ⋮ │       ⋮ │       ⋮ │       ⋮ │       ⋮ ⋱
└────────┴─────────┴─────────┴─────────┴─────────┴─────────┴─────────┴──────────
                                                   13 columns and 7 rows omitted
Condition number FixedDenoise + LoGo(MaxDist): 86.573
                           Covariance: LoGo(ExpDist)
┌────────┬─────────┬─────────┬─────────┬─────────┬─────────┬─────────┬──────────
│ Assets │    AAPL │     AMD │     BAC │     BBY │     CVX │      GE │      HD ⋯
│    Any │     Any │     Any │     Any │     Any │     Any │     Any │     Any ⋯
├────────┼─────────┼─────────┼─────────┼─────────┼─────────┼─────────┼──────────
│   AAPL │  0.05 % │ 0.063 % │ 0.026 % │ 0.034 % │ 0.013 % │ 0.027 % │ 0.026 % ⋯
│    AMD │ 0.063 % │ 0.147 % │ 0.044 % │ 0.057 % │ 0.025 % │ 0.049 % │ 0.039 % ⋯
│    BAC │ 0.026 % │ 0.044 % │ 0.042 % │ 0.022 % │ 0.015 % │ 0.028 % │ 0.015 % ⋯
│    BBY │ 0.034 % │ 0.057 % │ 0.022 % │ 0.081 % │ 0.012 % │ 0.027 % │ 0.037 % ⋯
│    CVX │ 0.013 % │ 0.025 % │ 0.015 % │ 0.012 % │ 0.043 % │ 0.017 % │ 0.008 % ⋯
│     GE │ 0.027 % │ 0.049 % │ 0.028 % │ 0.027 % │ 0.017 % │ 0.048 % │ 0.017 % ⋯
│     HD │ 0.026 % │ 0.039 % │ 0.015 % │ 0.037 % │ 0.008 % │ 0.017 % │ 0.039 % ⋯
│    JNJ │ 0.009 % │ 0.011 % │ 0.004 % │ 0.006 % │ 0.002 % │ 0.005 % │ 0.005 % ⋯
│    JPM │ 0.023 % │ 0.039 % │ 0.034 % │  0.02 % │ 0.013 % │ 0.025 % │ 0.014 % ⋯
│     KO │ 0.014 % │ 0.018 % │ 0.008 % │  0.01 % │ 0.004 % │ 0.008 % │ 0.008 % ⋯
│    LLY │  0.01 % │ 0.013 % │ 0.005 % │ 0.007 % │ 0.003 % │ 0.006 % │ 0.006 % ⋯
│    MRK │ 0.007 % │ 0.009 % │ 0.004 % │ 0.005 % │ 0.002 % │ 0.004 % │ 0.004 % ⋯
│   MSFT │ 0.041 % │ 0.061 % │ 0.023 % │ 0.033 % │ 0.012 % │ 0.025 % │ 0.027 % ⋯
│      ⋮ │       ⋮ │       ⋮ │       ⋮ │       ⋮ │       ⋮ │       ⋮ │       ⋮ ⋱
└────────┴─────────┴─────────┴─────────┴─────────┴─────────┴─────────┴──────────
                                                   13 columns and 7 rows omitted
…
pretty_table(DataFrame([rd.nx prs[4].V], ["Assets"; rd.nx]); formatters = [hmmtfmt],
             title = "Coskewness Negative Spectral Slices: Vanilla",
             source_notes = "Condition number Vanilla: $(round(cond(prs[4].V); digits = 3))")
pretty_table(DataFrame([rd.nx prs[5].V], ["Assets"; rd.nx]); formatters = [hmmtfmt],
             title = "Coskewness Negative Spectral Slices: FixedDenoise",
             source_notes = "Condition number FixedDenoise: $(round(cond(prs[5].V); digits = 3))")
pretty_table(DataFrame([rd.nx prs[6].V], ["Assets"; rd.nx]); formatters = [hmmtfmt],
             title = "Coskewness Negative Spectral Slices: LoGo(MaxDist)",
             source_notes = "Condition number LoGo(MaxDist): $(round(cond(prs[6].V); digits = 3))")

                  Coskewness Negative Spectral Slices: Vanilla
┌────────┬────────────┬────────────┬────────────┬────────────┬────────────┬─────
│ Assets │       AAPL │        AMD │        BAC │        BBY │        CVX │    ⋯
│    Any │        Any │        Any │        Any │        Any │        Any │    ⋯
├────────┼────────────┼────────────┼────────────┼────────────┼────────────┼─────
│   AAPL │ 10.95e-4 % │  8.74e-4 % │  0.42e-4 % │ 11.72e-4 % │  6.82e-4 % │  8 ⋯
│    AMD │  8.74e-4 % │ 39.47e-4 % │  3.05e-4 % │ 10.18e-4 % │ 16.53e-4 % │ 23 ⋯
│    BAC │  0.42e-4 % │  3.05e-4 % │  4.83e-4 % │  3.92e-4 % │ -0.99e-4 % │  0 ⋯
│    BBY │ 11.72e-4 % │ 10.18e-4 % │  3.92e-4 % │ 44.51e-4 % │  3.51e-4 % │  6 ⋯
│    CVX │  6.82e-4 % │ 16.53e-4 % │ -0.99e-4 % │  3.51e-4 % │ 31.05e-4 % │ 14 ⋯
│     GE │  8.11e-4 % │ 23.22e-4 % │  0.02e-4 % │  6.39e-4 % │ 14.81e-4 % │ 37 ⋯
│     HD │  8.11e-4 % │   1.1e-4 % │  2.36e-4 % │ 21.55e-4 % │ -1.51e-4 % │  1 ⋯
│    JNJ │  2.67e-4 % │  0.82e-4 % │ -0.36e-4 % │  5.79e-4 % │  1.36e-4 % │ -0 ⋯
│    JPM │ -1.57e-4 % │ -2.69e-4 % │  2.12e-4 % │ -2.19e-4 % │ -5.87e-4 % │ -2 ⋯
│     KO │  5.55e-4 % │  1.42e-4 % │  1.57e-4 % │ 15.44e-4 % │  2.42e-4 % │  3 ⋯
│    LLY │  3.15e-4 % │  5.99e-4 % │  0.52e-4 % │   7.1e-4 % │  3.94e-4 % │  5 ⋯
│    MRK │  1.39e-4 % │  0.44e-4 % │  0.02e-4 % │   0.1e-4 % │  2.34e-4 % │  4 ⋯
│   MSFT │  7.36e-4 % │ 13.13e-4 % │  0.08e-4 % │   8.4e-4 % │  6.19e-4 % │ 10 ⋯
│      ⋮ │          ⋮ │          ⋮ │          ⋮ │          ⋮ │          ⋮ │    ⋱
└────────┴────────────┴────────────┴────────────┴────────────┴────────────┴─────
                                                   15 columns and 7 rows omitted
Condition number Vanilla: 129.142
               Coskewness Negative Spectral Slices: FixedDenoise
┌────────┬────────────┬────────────┬────────────┬────────────┬────────────┬─────
│ Assets │       AAPL │        AMD │        BAC │        BBY │        CVX │    ⋯
│    Any │        Any │        Any │        Any │        Any │        Any │    ⋯
├────────┼────────────┼────────────┼────────────┼────────────┼────────────┼─────
│   AAPL │ 10.95e-4 % │  9.57e-4 % │  0.69e-4 % │ 11.57e-4 % │  6.33e-4 % │  8 ⋯
│    AMD │  9.57e-4 % │ 39.47e-4 % │   2.5e-4 % │  9.59e-4 % │ 16.04e-4 % │ 22 ⋯
│    BAC │  0.69e-4 % │   2.5e-4 % │  4.83e-4 % │  3.11e-4 % │ -1.68e-4 % │  1 ⋯
│    BBY │ 11.57e-4 % │  9.59e-4 % │  3.11e-4 % │ 44.51e-4 % │  2.12e-4 % │  7 ⋯
│    CVX │  6.33e-4 % │ 16.04e-4 % │ -1.68e-4 % │  2.12e-4 % │ 31.05e-4 % │ 17 ⋯
│     GE │  8.54e-4 % │ 22.19e-4 % │  1.62e-4 % │  7.31e-4 % │ 17.18e-4 % │ 37 ⋯
│     HD │   6.9e-4 % │  5.01e-4 % │  2.65e-4 % │ 19.02e-4 % │  -2.4e-4 % │  3 ⋯
│    JNJ │  2.49e-4 % │  0.49e-4 % │ -0.44e-4 % │  5.99e-4 % │  0.82e-4 % │  1 ⋯
│    JPM │ -2.17e-4 % │ -2.21e-4 % │  2.63e-4 % │ -1.37e-4 % │ -5.38e-4 % │ -2 ⋯
│     KO │  4.58e-4 % │  1.53e-4 % │  1.64e-4 % │ 13.45e-4 % │  2.85e-4 % │  1 ⋯
│    LLY │  3.83e-4 % │  6.23e-4 % │  0.29e-4 % │  5.94e-4 % │  3.98e-4 % │  6 ⋯
│    MRK │  0.79e-4 % │  1.38e-4 % │  -0.1e-4 % │  0.39e-4 % │   2.9e-4 % │  3 ⋯
│   MSFT │  6.05e-4 % │  11.6e-4 % │  0.45e-4 % │  8.37e-4 % │  6.82e-4 % │ 10 ⋯
│      ⋮ │          ⋮ │          ⋮ │          ⋮ │          ⋮ │          ⋮ │    ⋱
└────────┴────────────┴────────────┴────────────┴────────────┴────────────┴─────
                                                   15 columns and 7 rows omitted
Condition number FixedDenoise: 67.939
               Coskewness Negative Spectral Slices: LoGo(MaxDist)
┌────────┬────────────┬────────────┬───────────┬────────────┬────────────┬──────
│ Assets │       AAPL │        AMD │       BAC │        BBY │        CVX │     ⋯
│    Any │        Any │        Any │       Any │        Any │        Any │     ⋯
├────────┼────────────┼────────────┼───────────┼────────────┼────────────┼──────
│   AAPL │ 10.95e-4 % │ 10.51e-4 % │ 1.06e-4 % │ 13.13e-4 % │  5.88e-4 % │  8. ⋯
│    AMD │ 10.51e-4 % │ 39.47e-4 % │ 1.27e-4 % │ 15.19e-4 % │ 18.74e-4 % │ 24. ⋯
│    BAC │  1.06e-4 % │  1.27e-4 % │ 4.83e-4 % │  3.39e-4 % │   0.7e-4 % │   1 ⋯
│    BBY │ 13.13e-4 % │ 15.19e-4 % │ 3.39e-4 % │ 44.51e-4 % │  8.46e-4 % │ 12. ⋯
│    CVX │  5.88e-4 % │ 18.74e-4 % │  0.7e-4 % │  8.46e-4 % │ 31.05e-4 % │ 18. ⋯
│     GE │  8.52e-4 % │ 24.43e-4 % │  1.0e-4 % │ 12.13e-4 % │ 18.85e-4 % │ 37. ⋯
│     HD │   7.2e-4 % │  8.17e-4 % │ 1.72e-4 % │ 21.68e-4 % │  4.54e-4 % │  6. ⋯
│    JNJ │  2.51e-4 % │  3.92e-4 % │ 0.44e-4 % │  4.63e-4 % │  2.15e-4 % │  3. ⋯
│    JPM │  0.24e-4 % │  0.27e-4 % │ 3.28e-4 % │   0.9e-4 % │  0.15e-4 % │  0. ⋯
│     KO │  5.44e-4 % │  6.75e-4 % │ 1.93e-4 % │ 16.13e-4 % │   3.7e-4 % │  5. ⋯
│    LLY │  3.37e-4 % │  5.88e-4 % │ 0.52e-4 % │   5.8e-4 % │  3.28e-4 % │  4. ⋯
│    MRK │  2.09e-4 % │  3.13e-4 % │ 0.38e-4 % │  3.91e-4 % │  1.71e-4 % │   2 ⋯
│   MSFT │  6.83e-4 % │ 13.81e-4 % │ 0.83e-4 % │ 10.15e-4 % │  7.82e-4 % │ 11. ⋯
│      ⋮ │          ⋮ │          ⋮ │         ⋮ │          ⋮ │          ⋮ │     ⋱
└────────┴────────────┴────────────┴───────────┴────────────┴────────────┴──────
                                                   15 columns and 7 rows omitted
…
