Phylogeny and centrality constraints | PortfolioOptimisers.jl
…
pretty_table(DataFrame("Asset" => rd.nx, "Baseline" => res_base.w,
                       "Phylogeny" => res_phylo.w); formatters = [resfmt],
             title = "Minimum risk: baseline vs network-phylogeny constrained")

Minimum risk: baseline vs network-phylogeny constrained
┌────────┬──────────┬───────────┐
│  Asset │ Baseline │ Phylogeny │
│ String │  Float64 │   Float64 │
├────────┼──────────┼───────────┤
│   AAPL │    0.0 % │     0.0 % │
│    AMD │    0.0 % │     0.0 % │
│    BAC │    0.0 % │   0.005 % │
│    BBY │    0.0 % │     0.0 % │
│    CVX │  7.432 % │  12.063 % │
│     GE │  0.806 % │   0.109 % │
│     HD │    0.0 % │   0.001 % │
│    JNJ │ 36.974 % │  52.972 % │
│    JPM │  0.749 % │    1.95 % │
│     KO │ 11.161 % │   21.12 % │
│    LLY │    0.0 % │   0.001 % │
│    MRK │ 17.467 % │   0.024 % │
│   MSFT │    0.0 % │   0.001 % │
│    PEP │  8.978 % │   0.029 % │
│      ⋮ │        ⋮ │         ⋮ │
└────────┴──────────┴───────────┘
                   6 rows omitted
…
