Example 10: Cross validation | PortfolioOptimisers.jl
…
Let's check the timestamps.
julia
isequal(idx_walkforward_pred.mrd.ts, rd.ts[253:end])

true

Now let's see the evolution of the weights across the different splits.
julia
pretty_table(hcat(DataFrame(:tickers => rd.nx),
                  DataFrame(reduce(hcat, getproperty.(idx_walkforward_pred.res, :w)),
                            Symbol.(1:16))); formatters = [resfmt])

┌─────────┬──────────┬──────────┬──────────┬──────────┬──────────┬──────────┬───
│ tickers │        1 │        2 │        3 │        4 │        5 │        6 │  ⋯
│  String │  Float64 │  Float64 │  Float64 │  Float64 │  Float64 │  Float64 │  ⋯
├─────────┼──────────┼──────────┼──────────┼──────────┼──────────┼──────────┼───
│    AAPL │  3.104 % │    0.0 % │    0.0 % │    0.0 % │    0.0 % │    0.0 % │  ⋯
│     AMD │    0.0 % │    0.0 % │    0.0 % │    0.0 % │    0.0 % │    0.0 % │  ⋯
│     BAC │    0.0 % │    0.0 % │    0.0 % │    0.0 % │    0.0 % │    0.0 % │  ⋯
│     BBY │  3.634 % │  3.773 % │  4.216 % │  1.757 % │    0.0 % │    0.0 % │  ⋯
│     CVX │  2.537 % │  5.289 % │  2.886 % │  6.628 % │ 11.588 % │    0.0 % │  ⋯
│      GE │  5.126 % │  2.433 % │  0.684 % │  1.042 % │    0.0 % │    0.0 % │  ⋯
│      HD │    0.0 % │  2.601 % │  3.602 % │  2.514 % │  6.347 % │    0.0 % │  ⋯
│     JNJ │    0.0 % │  0.017 % │  0.797 % │  7.841 % │ 14.529 % │  7.359 % │  ⋯
│     JPM │  6.409 % │ 10.765 % │ 10.995 % │  7.026 % │  3.402 % │    0.0 % │  ⋯
│      KO │ 49.958 % │  26.25 % │  22.85 % │ 18.299 % │ 12.377 % │ 24.085 % │  ⋯
│     LLY │   2.11 % │  9.026 % │ 10.324 % │  5.688 % │  4.636 % │    0.0 % │  ⋯
│     MRK │  6.173 % │  1.687 % │   2.78 % │  6.572 % │  5.126 % │ 23.968 % │  ⋯
│    MSFT │    0.0 % │    0.0 % │    0.0 % │    0.0 % │    0.0 % │    0.0 % │  ⋯
│     PEP │  8.202 % │  9.381 % │ 11.103 % │ 12.631 % │  5.716 % │    0.0 % │  ⋯
│     PFE │  0.007 % │  2.932 % │    0.0 % │    0.0 % │   1.14 % │  2.727 % │  ⋯
│       ⋮ │        ⋮ │        ⋮ │        ⋮ │        ⋮ │        ⋮ │        ⋮ │  ⋱
└─────────┴──────────┴──────────┴──────────┴──────────┴──────────┴──────────┴───
                                                   10 columns and 5 rows omitted
…
Now let's see the evolution of the weights across the different splits. We can see how the weights change at most 2% per period.
julia
pretty_table(hcat(DataFrame(:tickers => rd.nx),
                  DataFrame(reduce(hcat, getproperty.(idx_tn_walkforward_pred.res, :w)),
                            Symbol.(1:16))); formatters = [resfmt])

┌─────────┬─────────┬─────────┬─────────┬─────────┬──────────┬──────────┬───────
│ tickers │       1 │       2 │       3 │       4 │        5 │        6 │      ⋯
│  String │ Float64 │ Float64 │ Float64 │ Float64 │  Float64 │  Float64 │  Flo ⋯
├─────────┼─────────┼─────────┼─────────┼─────────┼──────────┼──────────┼───────
│    AAPL │   3.0 % │   1.0 % │   0.0 % │   0.0 % │    0.0 % │    0.0 % │    0 ⋯
│     AMD │   3.0 % │   1.0 % │   0.0 % │   0.0 % │    0.0 % │    0.0 % │    0 ⋯
│     BAC │   3.0 % │ 1.354 % │   0.0 % │   0.0 % │    0.0 % │    0.0 % │    0 ⋯
│     BBY │   3.0 % │ 2.903 % │  3.93 % │  1.93 % │    0.0 % │    0.0 % │    0 ⋯
│     CVX │   3.0 % │ 4.681 % │ 3.399 % │ 5.398 % │  7.398 % │  5.398 % │  3.3 ⋯
│      GE │ 4.288 % │ 2.345 % │ 0.808 % │ 0.718 % │    0.0 % │    0.0 % │    0 ⋯
│      HD │   3.0 % │   5.0 % │ 5.948 % │ 3.948 % │  5.947 % │  3.947 % │  1.9 ⋯
│     JNJ │   7.0 % │ 5.987 % │ 4.334 % │ 6.334 % │  8.333 % │ 10.333 % │ 12.3 ⋯
│     JPM │ 5.712 % │ 7.712 % │ 9.712 % │ 8.063 % │  6.152 % │  4.152 % │  2.1 ⋯
│      KO │   7.0 % │   9.0 % │  11.0 % │  13.0 % │ 12.391 % │ 14.391 % │ 16.3 ⋯
│     LLY │   7.0 % │ 8.987 % │ 9.091 % │ 7.091 % │  5.423 % │  3.786 % │  4.6 ⋯
│     MRK │   7.0 % │  8.75 % │ 6.751 % │ 7.327 % │  6.199 % │  8.199 % │ 10.1 ⋯
│    MSFT │   3.0 % │   1.0 % │   0.0 % │   0.0 % │    0.0 % │    0.0 % │    0 ⋯
│     PEP │   7.0 % │   9.0 % │  11.0 % │  13.0 % │ 11.015 % │  9.015 % │  7.0 ⋯
│     PFE │   7.0 % │   5.0 % │   3.0 % │ 1.001 % │   2.12 % │   4.12 % │   6. ⋯
│       ⋮ │       ⋮ │       ⋮ │       ⋮ │       ⋮ │        ⋮ │        ⋮ │      ⋱
└─────────┴─────────┴─────────┴─────────┴─────────┴──────────┴──────────┴───────
                                                   10 columns and 5 rows omitted
…
We can see the evolution of the weights across the different splits. We can see how the weights change at most 2% per period.
julia
pretty_table(hcat(DataFrame(:tickers => rd.nx),
                  DataFrame(reduce(hcat, getproperty.(date_tn_walkforward_pred.res, :w)),
                            Symbol.(1:15))); formatters = [resfmt])

┌─────────┬─────────┬─────────┬─────────┬─────────┬──────────┬──────────┬───────
│ tickers │       1 │       2 │       3 │       4 │        5 │        6 │      ⋯
│  String │ Float64 │ Float64 │ Float64 │ Float64 │  Float64 │  Float64 │  Flo ⋯
├─────────┼─────────┼─────────┼─────────┼─────────┼──────────┼──────────┼───────
│    AAPL │   3.0 % │   1.0 % │   0.0 % │   0.0 % │    0.0 % │    0.0 % │    0 ⋯
│     AMD │   3.0 % │   1.0 % │   0.0 % │   0.0 % │    0.0 % │    0.0 % │    0 ⋯
│     BAC │   3.0 % │ 1.388 % │   0.0 % │   0.0 % │    0.0 % │    0.0 % │    0 ⋯
│     BBY │   3.0 % │ 2.859 % │ 4.005 % │ 2.005 % │  0.005 % │    0.0 % │    0 ⋯
│     CVX │   3.0 % │  4.56 % │ 3.364 % │ 5.364 % │  7.364 % │  5.364 % │  3.3 ⋯
│      GE │ 4.296 % │  2.36 % │ 0.788 % │ 0.688 % │    0.0 % │    0.0 % │    0 ⋯
│      HD │   3.0 % │ 4.999 % │ 5.964 % │ 3.965 % │  5.964 % │  3.965 % │  1.9 ⋯
│     JNJ │   7.0 % │ 5.998 % │ 4.248 % │ 6.247 % │  8.247 % │ 10.247 % │ 12.2 ⋯
│     JPM │ 5.704 % │ 7.704 % │ 9.703 % │ 7.982 % │  6.127 % │  4.127 % │  2.1 ⋯
│      KO │   7.0 % │   9.0 % │  11.0 % │  13.0 % │ 12.603 % │ 14.603 % │ 16.6 ⋯
│     LLY │   7.0 % │ 8.931 % │ 9.187 % │ 7.187 % │  5.495 % │   3.87 % │  4.7 ⋯
│     MRK │   7.0 % │ 8.699 % │   6.7 % │  7.22 % │  6.239 % │  8.239 % │ 10.2 ⋯
│    MSFT │   3.0 % │   1.0 % │   0.0 % │   0.0 % │    0.0 % │    0.0 % │    0 ⋯
│     PEP │   7.0 % │   9.0 % │  11.0 % │  13.0 % │ 11.002 % │  9.002 % │  7.0 ⋯
│     PFE │   7.0 % │ 5.001 % │ 3.001 % │ 1.001 % │  1.961 % │  3.961 % │  5.9 ⋯
│       ⋮ │       ⋮ │       ⋮ │       ⋮ │       ⋮ │        ⋮ │        ⋮ │      ⋱
└─────────┴─────────┴─────────┴─────────┴─────────┴──────────┴──────────┴───────
                                                    9 columns and 5 rows omitted
…
